<?xml version="1.0" encoding="UTF-8" standalone="no"?>
<svg
   id="svg2"
   width="144"
   height="126"
   version="1"
   viewBox="0 0 144 126"
   sodipodi:docname="tasks.svg"
   inkscape:version="1.1.1 (3bf5ae0d25, 2021-09-20)"
   xmlns:inkscape="http://www.inkscape.org/namespaces/inkscape"
   xmlns:sodipodi="http://sodipodi.sourceforge.net/DTD/sodipodi-0.dtd"
   xmlns="http://www.w3.org/2000/svg"
   xmlns:svg="http://www.w3.org/2000/svg">
  <sodipodi:namedview
     id="namedview226"
     pagecolor="#ffffff"
     bordercolor="#666666"
     borderopacity="1.0"
     inkscape:pageshadow="2"
     inkscape:pageopacity="0.0"
     inkscape:pagecheckerboard="0"
     showgrid="false"
     inkscape:zoom="7.0710678"
     inkscape:cx="24.678027"
     inkscape:cy="74.599765"
     inkscape:window-width="951"
     inkscape:window-height="1048"
     inkscape:window-x="6"
     inkscape:window-y="6"
     inkscape:window-maximized="1"
     inkscape:current-layer="svg2"
     inkscape:snap-text-baseline="true" />
  <defs
     id="null"><filter
   id="filter7986-7-9-7-4-0"
   style="color-interpolation-filters:sRGB"
   width="1.576"
   height="1.576"
   x="-0.288"
   y="-0.288">
  <feTurbulence
     id="feTurbulence7988-54-9-1-4-1"
     baseFrequency=".03"
     numOctaves="5"
     result="result1"
     seed="0"
     type="fractalNoise" />
  <feDisplacementMap
     id="feDisplacementMap7990-3-05-6-7-0"
     in="SourceGraphic"
     in2="result1"
     result="result3"
     scale="7"
     xChannelSelector="R"
     yChannelSelector="G" />
  <feComposite
     id="feComposite7992-2-08-7-23-6"
     in="result3"
     in2="result1"
     operator="in"
     result="result4" />
  <feGaussianBlur
     id="feGaussianBlur7994-4-0-9-1-96"
     in="result4"
     result="result8"
     stdDeviation=".7" />
  <feConvolveMatrix
     id="feConvolveMatrix7996-8-8-2-4-6"
     bias="0"
     divisor="1"
     in="result8"
     kernelMatrix="1 1 1 1 -8 1 1 1 1"
     order="3 3"
     preserveAlpha="true"
     result="result0"
     targetX="1"
     targetY="1" />
  <feColorMatrix
     id="feColorMatrix7998-9-71-3-3-3"
     in="result0"
     result="result1"
     type="luminanceToAlpha"
     values="1" />
  <feComposite
     id="feComposite8000-2-2-2-4-88"
     in2="result1"
     k1="0"
     k2="5"
     k3="0"
     k4="0"
     operator="arithmetic"
     result="result11" />
  <feGaussianBlur
     id="feGaussianBlur8002-70-11-4-0-82"
     in="result11"
     result="result7"
     stdDeviation=".5" />
  <feColorMatrix
     id="feColorMatrix8004-7-4-2-5-1"
     result="result9"
     values="1 0 0 0 0 0 1 0 0 0 0 0 1 0 0 0 0 0 3 0" />
  <feFlood
     id="feFlood8006-4-9-1-7-8"
     flood-color="#9D5728"
     flood-opacity="1"
     in="result9"
     result="result10" />
  <feComposite
     id="feComposite8008-1-2-8-6-95"
     in="result10"
     in2="result9"
     operator="in"
     result="result12" />
  <feComposite
     id="feComposite8010-6-2-1-8-17"
     in2="SourceGraphic"
     operator="in" />
</filter>
<filter
   id="filter7986-7-9-7-4-1-5"
   style="color-interpolation-filters:sRGB"
   width="1.576"
   height="1.576"
   x="-0.288"
   y="-0.288">
  <feTurbulence
     id="feTurbulence7988-54-9-1-4-6-0"
     baseFrequency=".03"
     numOctaves="5"
     result="result1"
     seed="0"
     type="fractalNoise" />
  <feDisplacementMap
     id="feDisplacementMap7990-3-05-6-7-3-0"
     in="SourceGraphic"
     in2="result1"
     result="result3"
     scale="7"
     xChannelSelector="R"
     yChannelSelector="G" />
  <feComposite
     id="feComposite7992-2-08-7-23-0-6"
     in="result3"
     in2="result1"
     operator="in"
     result="result4" />
  <feGaussianBlur
     id="feGaussianBlur7994-4-0-9-1-87-8"
     in="result4"
     result="result8"
     stdDeviation=".7" />
  <feConvolveMatrix
     id="feConvolveMatrix7996-8-8-2-4-4-7"
     bias="0"
     divisor="1"
     in="result8"
     kernelMatrix="1 1 1 1 -8 1 1 1 1"
     order="3 3"
     preserveAlpha="true"
     result="result0"
     targetX="1"
     targetY="1" />
  <feColorMatrix
     id="feColorMatrix7998-9-71-3-3-40-3"
     in="result0"
     result="result1"
     type="luminanceToAlpha"
     values="1" />
  <feComposite
     id="feComposite8000-2-2-2-4-52-1"
     in2="result1"
     k1="0"
     k2="5"
     k3="0"
     k4="0"
     operator="arithmetic"
     result="result11" />
  <feGaussianBlur
     id="feGaussianBlur8002-70-11-4-0-07-2"
     in="result11"
     result="result7"
     stdDeviation=".5" />
  <feColorMatrix
     id="feColorMatrix8004-7-4-2-5-7-2"
     result="result9"
     values="1 0 0 0 0 0 1 0 0 0 0 0 1 0 0 0 0 0 3 0" />
  <feFlood
     id="feFlood8006-4-9-1-7-9-1"
     flood-color="#9D5728"
     flood-opacity="1"
     in="result9"
     result="result10" />
  <feComposite
     id="feComposite8008-1-2-8-6-7-3"
     in="result10"
     in2="result9"
     operator="in"
     result="result12" />
  <feComposite
     id="feComposite8010-6-2-1-8-4-6"
     in2="SourceGraphic"
     operator="in" />
</filter>
<filter
   id="filter7986-7-9-7-4-2-6"
   style="color-interpolation-filters:sRGB"
   width="1.576"
   height="1.576"
   x="-0.288"
   y="-0.288">
  <feTurbulence
     id="feTurbulence7988-54-9-1-4-9-4"
     baseFrequency=".03"
     numOctaves="5"
     result="result1"
     seed="0"
     type="fractalNoise" />
  <feDisplacementMap
     id="feDisplacementMap7990-3-05-6-7-78-0"
     in="SourceGraphic"
     in2="result1"
     result="result3"
     scale="7"
     xChannelSelector="R"
     yChannelSelector="G" />
  <feComposite
     id="feComposite7992-2-08-7-23-23-1"
     in="result3"
     in2="result1"
     operator="in"
     result="result4" />
  <feGaussianBlur
     id="feGaussianBlur7994-4-0-9-1-9-2"
     in="result4"
     result="result8"
     stdDeviation=".7" />
  <feConvolveMatrix
     id="feConvolveMatrix7996-8-8-2-4-0-0"
     bias="0"
     divisor="1"
     in="result8"
     kernelMatrix="1 1 1 1 -8 1 1 1 1"
     order="3 3"
     preserveAlpha="true"
     result="result0"
     targetX="1"
     targetY="1" />
  <feColorMatrix
     id="feColorMatrix7998-9-71-3-3-53-5"
     in="result0"
     result="result1"
     type="luminanceToAlpha"
     values="1" />
  <feComposite
     id="feComposite8000-2-2-2-4-75-4"
     in2="result1"
     k1="0"
     k2="5"
     k3="0"
     k4="0"
     operator="arithmetic"
     result="result11" />
  <feGaussianBlur
     id="feGaussianBlur8002-70-11-4-0-0-2"
     in="result11"
     result="result7"
     stdDeviation=".5" />
  <feColorMatrix
     id="feColorMatrix8004-7-4-2-5-55-8"
     result="result9"
     values="1 0 0 0 0 0 1 0 0 0 0 0 1 0 0 0 0 0 3 0" />
  <feFlood
     id="feFlood8006-4-9-1-7-4-7"
     flood-color="#9D5728"
     flood-opacity="1"
     in="result9"
     result="result10" />
  <feComposite
     id="feComposite8008-1-2-8-6-1-2"
     in="result10"
     in2="result9"
     operator="in"
     result="result12" />
  <feComposite
     id="feComposite8010-6-2-1-8-5-2"
     in2="SourceGraphic"
     operator="in" />
</filter>
<filter
   id="filter7986-7-9-7-4-5-5"
   style="color-interpolation-filters:sRGB"
   width="1.576"
   height="1.576"
   x="-0.288"
   y="-0.288">
  <feTurbulence
     id="feTurbulence7988-54-9-1-4-03-1"
     baseFrequency=".03"
     numOctaves="5"
     result="result1"
     seed="0"
     type="fractalNoise" />
  <feDisplacementMap
     id="feDisplacementMap7990-3-05-6-7-79-5"
     in="SourceGraphic"
     in2="result1"
     result="result3"
     scale="7"
     xChannelSelector="R"
     yChannelSelector="G" />
  <feComposite
     id="feComposite7992-2-08-7-23-7-9"
     in="result3"
     in2="result1"
     operator="in"
     result="result4" />
  <feGaussianBlur
     id="feGaussianBlur7994-4-0-9-1-8-1"
     in="result4"
     result="result8"
     stdDeviation=".7" />
  <feConvolveMatrix
     id="feConvolveMatrix7996-8-8-2-4-82-2"
     bias="0"
     divisor="1"
     in="result8"
     kernelMatrix="1 1 1 1 -8 1 1 1 1"
     order="3 3"
     preserveAlpha="true"
     result="result0"
     targetX="1"
     targetY="1" />
  <feColorMatrix
     id="feColorMatrix7998-9-71-3-3-4-9"
     in="result0"
     result="result1"
     type="luminanceToAlpha"
     values="1" />
  <feComposite
     id="feComposite8000-2-2-2-4-8-1"
     in2="result1"
     k1="0"
     k2="5"
     k3="0"
     k4="0"
     operator="arithmetic"
     result="result11" />
  <feGaussianBlur
     id="feGaussianBlur8002-70-11-4-0-97-0"
     in="result11"
     result="result7"
     stdDeviation=".5" />
  <feColorMatrix
     id="feColorMatrix8004-7-4-2-5-5-9"
     result="result9"
     values="1 0 0 0 0 0 1 0 0 0 0 0 1 0 0 0 0 0 3 0" />
  <feFlood
     id="feFlood8006-4-9-1-7-38-0"
     flood-color="#9D5728"
     flood-opacity="1"
     in="result9"
     result="result10" />
  <feComposite
     id="feComposite8008-1-2-8-6-85-5"
     in="result10"
     in2="result9"
     operator="in"
     result="result12" />
  <feComposite
     id="feComposite8010-6-2-1-8-29-05"
     in2="SourceGraphic"
     operator="in" />
</filter>
<style
   id="current-color-scheme"
   type="text/css">
       
      .ColorScheme-Text {
        
      }
      .ColorScheme-Background {
        color:#eff0f1;
      }
      .ColorScheme-ButtonFocus {
        color:#3daee9;
      }
      .ColorScheme-ViewText {
        
      }
      .ColorScheme-ViewBackground {
        color:#fcfcfc;
      }
      .ColorScheme-ViewHover {
        color:#93cee9;
      }
      .ColorScheme-ViewFocus{
        color:#3daee9;
      }
      .ColorScheme-ButtonText {
        
      }
      .ColorScheme-ButtonBackground {
        color:#eff0f1;
      }
      .ColorScheme-ButtonHover {
        color:#93cee9;
      }
      .ColorScheme-ButtonFocus{
        color:#3daee9;
      }
      .ColorScheme-Text {
        
      }
      .ColorScheme-NeutralText {
        color:#f67400;
      }
      .ColorScheme-PositiveText {
        color:#27ae60;
      }
 /&gt;
    </style>
id=&quot;current-color-scheme&quot;&gt;
  </defs>
  <g
     id="focus-left"
     transform="matrix(-1,0,0,-1,36,50)">
    <path
       id="rect4945-9-2-4"
       style="opacity:0.1;fill:currentColor;fill-opacity:0.95;stroke:none"
       d="M 2 25 L 2 38 L 3 38 L 5 38 L 5 25 L 3 25 L 2 25 z"
       transform="matrix(-1,0,0,-1,36,50)"
       class="ColorScheme-ButtonFocus" />
    <rect
       id="rect4951-3-2-7"
       style="opacity:0.95;fill:none;fill-opacity:0.95;stroke:none"
       width="1"
       height="13"
       x="34"
       y="12" />
  </g>
  <g
     id="focus-right"
     transform="translate(0,13)">
    <path
       id="rect4945-8-1"
       style="opacity:0.1;fill:currentColor;fill-opacity:0.95;stroke:none"
       d="M 31 25 L 31 38 L 33 38 L 34 38 L 34 25 L 33 25 L 31 25 z"
       transform="translate(0,-13)"
       class="ColorScheme-ButtonFocus" />
    <rect
       id="rect4951-5-3"
       style="opacity:0.95;fill:none;fill-opacity:0.95;stroke:none"
       width="1"
       height="13"
       x="34"
       y="12" />
  </g>
  <g
     id="focus-center"
     transform="matrix(0.96296296,0,0,1,0.1851852,20.9)">
    <rect
       id="rect4957-0-5"
       style="opacity:0.1;fill:currentColor;fill-opacity:0.95;stroke:none"
       width="27"
       height="13"
       x="5"
       y="4.1"
       class="ColorScheme-ButtonFocus" />
  </g>
  <g
     id="focus-top"
     transform="matrix(1,0,0,-1,0,51)">
    <path
       id="rect4997-3-9"
       style="opacity:0.1;fill:currentColor;fill-opacity:0.95;stroke:none"
       d="M 5 22 L 5 23 L 5 25 L 31 25 L 31 23 L 31 22 L 5 22 z"
       transform="matrix(1,0,0,-1,0,51)"
       class="ColorScheme-ButtonFocus" />
  </g>
  <g
     id="focus-topleft"
     transform="matrix(0,-1,-1,0,23,56)">
    <rect
       id="rect4369-7-5-09-7-4"
       style="opacity:0.95;fill:none;fill-opacity:0.95;stroke:none"
       width="3"
       height="1"
       x="31"
       y="21" />
    <path
       id="rect5003-5-7-5"
       style="opacity:0.1;fill:currentColor;fill-opacity:0.95;stroke:none"
       d="M 3 22 C 2 22 2 23 2 23 L 2 25 L 3 25 L 5 25 L 5 23 L 5 22 L 3 22 z"
       transform="matrix(0,-1,-1,0,56,23)"
       class="ColorScheme-ButtonFocus" />
  </g>
  <g
     id="focus-topright"
     transform="matrix(1,0,0,-1,0,43)">
    <rect
       id="rect4369-7-5-0-18-3"
       style="opacity:0.95;fill:none;fill-opacity:0.95;stroke:none"
       width="1"
       height="3"
       x="34"
       y="-21"
       transform="scale(1,-1)" />
    <path
       id="rect5003-7-6"
       style="opacity:0.1;fill:currentColor;fill-opacity:0.95;stroke:none"
       d="M 31 22 L 31 23 L 31 25 L 33 25 L 34 25 L 34 23 C 34 22 33 22 33 22 L 31 22 z"
       transform="matrix(1,0,0,-1,0,43)"
       class="ColorScheme-ButtonFocus" />
  </g>
  <g
     id="hover-left"
     transform="matrix(-1,0,0,-1,36,92)">
    <path
       id="rect4945-9-2-49"
       style="opacity:0.1;fill:currentColor;fill-opacity:0.95;stroke:none"
       d="M 2 67 L 2 80 L 3 80 L 5 80 L 5 67 L 3 67 L 2 67 z"
       transform="matrix(-1,0,0,-1,36,92)"
       class="ColorScheme-ButtonHover" />
    <rect
       id="rect4951-3-2-72"
       style="opacity:0.95;fill:none;fill-opacity:0.95;stroke:none"
       width="1"
       height="13"
       x="34"
       y="12" />
  </g>
  <g
     id="hover-right"
     transform="translate(0,55)">
    <path
       id="rect4945-8-19"
       style="opacity:0.1;fill:currentColor;fill-opacity:0.95;stroke:none"
       d="M 31 67 L 31 80 L 33 80 L 34 80 L 34 67 L 33 67 L 31 67 z"
       transform="translate(0,-55)"
       class="ColorScheme-ButtonHover" />
    <rect
       id="rect4951-5-6"
       style="opacity:0.95;fill:none;fill-opacity:0.95;stroke:none"
       width="1"
       height="13"
       x="34"
       y="12" />
  </g>
  <g
     id="hover-center"
     transform="matrix(0.96296296,0,0,1,0.1851852,62.9)">
    <rect
       id="rect4957-0-0"
       style="opacity:0.1;fill:currentColor;fill-opacity:0.95;stroke:none"
       width="27"
       height="13"
       x="5"
       y="4.1"
       class="ColorScheme-ButtonHover" />
  </g>
  <g
     id="hover-top"
     transform="matrix(1,0,0,-1,0,93)">
    <path
       id="rect4997-3-95"
       style="opacity:0.1;fill:currentColor;fill-opacity:0.95;stroke:none"
       d="M 5 64 L 5 65 L 5 67 L 31 67 L 31 65 L 31 64 L 5 64 z"
       transform="matrix(1,0,0,-1,0,93)"
       class="ColorScheme-ButtonHover" />
  </g>
  <g
     id="hover-topleft"
     transform="matrix(0,-1,-1,0,23,98)">
    <rect
       id="rect4369-7-5-09-7-47"
       style="opacity:0.95;fill:none;fill-opacity:0.95;stroke:none"
       width="3"
       height="1"
       x="31"
       y="21" />
    <path
       id="rect5003-5-7-4"
       style="opacity:0.1;fill:currentColor;fill-opacity:0.95;stroke:none"
       d="M 3 64 C 2 64 2 65 2 65 L 2 67 L 3 67 L 5 67 L 5 65 L 5 64 L 3 64 z"
       transform="matrix(0,-1,-1,0,98,23)"
       class="ColorScheme-ButtonHover" />
  </g>
  <g
     id="hover-topright"
     transform="matrix(1,0,0,-1,0,85)">
    <rect
       id="rect4369-7-5-0-18-1"
       style="opacity:0.95;fill:none;fill-opacity:0.95;stroke:none"
       width="1"
       height="3"
       x="34"
       y="-21"
       transform="scale(1,-1)" />
    <path
       id="rect5003-7-7"
       style="opacity:0.1;fill:currentColor;fill-opacity:0.95;stroke:none"
       d="M 31 64 L 31 65 L 31 67 L 33 67 L 34 67 L 34 65 C 34 64 33 64 33 64 L 31 64 z"
       transform="matrix(1,0,0,-1,0,85)"
       class="ColorScheme-ButtonHover" />
  </g>
  <g
     id="attention-left"
     transform="matrix(-1,0,0,-1,36,113)">
    <path
       id="rect4945-9-2-6"
       style="opacity:0.75;fill:currentColor;fill-opacity:0.95;stroke:none"
       d="M 2 88 L 2 101 L 3 101 L 5 101 L 5 88 L 3 88 L 2 88 z"
       transform="matrix(-1,0,0,-1,36,113)"
       class="ColorScheme-NeutralText" />
    <rect
       id="rect4951-3-2-4"
       style="opacity:0.95;fill:none;fill-opacity:0.95;stroke:none"
       width="1"
       height="13"
       x="34"
       y="12" />
  </g>
  <g
     id="attention-right"
     transform="translate(0,76)">
    <path
       id="rect4945-8-0"
       style="opacity:0.75;fill:currentColor;fill-opacity:0.95;stroke:none"
       d="M 31 88 L 31 101 L 33 101 L 34 101 L 34 88 L 33 88 L 31 88 z"
       transform="translate(0,-76)"
       class="ColorScheme-NeutralText" />
    <rect
       id="rect4951-5-0"
       style="opacity:0.95;fill:none;fill-opacity:0.95;stroke:none"
       width="1"
       height="13"
       x="34"
       y="12" />
  </g>
  <g
     id="attention-center"
     transform="matrix(0.96296296,0,0,1,0.1851852,83.9)">
    <rect
       id="rect4957-0-9"
       style="opacity:0.75;fill:currentColor;fill-opacity:0.95;stroke:none"
       width="27"
       height="13"
       x="5"
       y="4.1"
       class="ColorScheme-NeutralText" />
  </g>
  <g
     id="attention-top"
     transform="matrix(1,0,0,-1,0,114)">
    <path
       id="rect4997-3-90"
       style="opacity:0.75;fill:currentColor;fill-opacity:0.95;stroke:none"
       d="M 5 85 L 5 86 L 5 88 L 31 88 L 31 86 L 31 85 L 5 85 z"
       transform="matrix(1,0,0,-1,0,114)"
       class="ColorScheme-NeutralText" />
  </g>
  <g
     id="attention-topleft"
     transform="matrix(0,-1,-1,0,23,119)">
    <rect
       id="rect4369-7-5-09-7-1"
       style="opacity:0.95;fill:none;fill-opacity:0.95;stroke:none"
       width="3"
       height="1"
       x="31"
       y="21" />
    <path
       id="rect5003-5-7-25"
       style="opacity:0.75;fill:currentColor;fill-opacity:0.95;stroke:none"
       d="M 3 85 C 2 85 2 86 2 86 L 2 88 L 3 88 L 5 88 L 5 86 L 5 85 L 3 85 z"
       transform="matrix(0,-1,-1,0,119,23)"
       class="ColorScheme-NeutralText" />
  </g>
  <g
     id="attention-topright"
     transform="matrix(1,0,0,-1,0,106)">
    <rect
       id="rect4369-7-5-0-18-9"
       style="opacity:0.95;fill:none;fill-opacity:0.95;stroke:none"
       width="1"
       height="3"
       x="34"
       y="-21"
       transform="scale(1,-1)" />
    <path
       id="rect5003-7-0"
       style="opacity:0.75;fill:currentColor;fill-opacity:0.95;stroke:none"
       d="M 31 85 L 31 86 L 31 88 L 33 88 L 34 88 L 34 86 C 34 85 33 85 33 85 L 31 85 z"
       transform="matrix(1,0,0,-1,0,106)"
       class="ColorScheme-NeutralText" />
  </g>
  <g
     id="progress-left"
     transform="matrix(-1,0,0,-1,36,28.999999)">
    <rect
       id="rect4945-9-2-4-9"
       style="color:#3daee9;opacity:0;fill:#4877b1;fill-opacity:0.95;stroke:none"
       width="2"
       height="13"
       x="31"
       y="12" />
    <rect
       id="rect4949-9-2-9-4"
       style="color:#3daee9;opacity:0;fill:#4877b1;fill-opacity:0.95;stroke:none"
       width="1"
       height="13"
       x="33"
       y="12" />
    <rect
       id="rect4951-3-2-7-3"
       style="opacity:0.95;fill:none;fill-opacity:0.95;stroke:none"
       width="1"
       height="13"
       x="34"
       y="12" />
  </g>
  <g
     id="progress-right"
     transform="translate(1e-7,-8.000001)">
    <rect
       id="rect4945-8-1-34"
       style="color:#3daee9;opacity:0;fill:#4877b1;fill-opacity:0.95;stroke:none"
       width="2"
       height="13"
       x="31"
       y="12" />
    <rect
       id="rect4949-5-5-3"
       style="color:#3daee9;opacity:0;fill:#4877b1;fill-opacity:0.95;stroke:none"
       width="1"
       height="13"
       x="33"
       y="12" />
    <rect
       id="rect4951-5-3-8"
       style="opacity:0.95;fill:none;fill-opacity:0.95;stroke:none"
       width="1"
       height="13"
       x="34"
       y="12" />
  </g>
  <g
     id="progress-center"
     transform="matrix(0.96296296,0,0,1,0.1851852,-0.1)">
    <rect
       id="rect4957-0-5-1"
       style="color:#3daee9;opacity:0;fill:#4877b1;fill-opacity:0.95;stroke:none"
       width="27"
       height="13"
       x="5"
       y="4.1" />
  </g>
  <g
     id="progress-top"
     transform="matrix(1,0,0,-1,1e-7,29.999999)">
    <rect
       id="rect4997-3-9-3"
       style="color:#3daee9;opacity:0;fill:#4877b1;fill-opacity:0.95;stroke:none"
       width="26"
       height="2"
       x="5"
       y="-28"
       transform="scale(1,-1)" />
    <rect
       id="rect4999-2-9-8"
       style="color:#3daee9;opacity:0;fill:#4877b1;fill-opacity:0.95;stroke:none"
       width="26"
       height="1"
       x="5"
       y="-29"
       transform="scale(1,-1)" />
  </g>
  <g
     id="progress-topleft"
     transform="matrix(0,-1,-1,0,23,35)">
    <rect
       id="rect4369-7-5-09-7-4-82"
       style="opacity:0.95;fill:none;fill-opacity:0.95;stroke:none"
       width="3"
       height="1"
       x="31"
       y="21" />
    <rect
       id="rect5003-5-7-5-7"
       style="color:#3daee9;opacity:0;fill:#4877b1;fill-opacity:0.95;stroke:none"
       width="2"
       height="2"
       x="31"
       y="18" />
    <path
       id="rect5015-0-5-7-0"
       style="color:#3daee9;opacity:0;fill:#4877b1;fill-opacity:0.95;stroke:none"
       d="m 31,21 0,-1 2,0 0,-2 1,0 0,2 c 0,1 -1,1 -1,1 l -2,0 z" />
  </g>
  <g
     id="progress-topright"
     transform="matrix(1,0,0,-1,1e-7,21.999999)">
    <rect
       id="rect4369-7-5-0-18-3-4"
       style="opacity:0.95;fill:none;fill-opacity:0.95;stroke:none"
       width="1"
       height="3"
       x="34"
       y="-21"
       transform="scale(1,-1)" />
    <rect
       id="rect5003-7-6-1"
       style="color:#3daee9;opacity:0;fill:#4877b1;fill-opacity:0.95;stroke:none"
       width="2"
       height="2"
       x="31"
       y="18" />
    <path
       id="rect5015-1-3-6"
       style="color:#3daee9;opacity:0;fill:#4877b1;fill-opacity:0.95;stroke:none"
       d="m 31,21 0,-1 2,0 0,-2 1,0 0,2 c 0,1 -1,1 -1,1 l -2,0 z" />
  </g>
  <g
     id="normal-left"
     transform="matrix(-1,0,0,-1,36,71)">
    <path
       id="rect4921"
       style="opacity:0.1;fill:currentColor;fill-opacity:0.95;stroke:none"
       d="M 2 46 L 2 59 L 3 59 L 5 59 L 5 46 L 3 46 L 2 46 z"
       transform="matrix(-1,0,0,-1,36,71)"
       class="ColorScheme-Text" />
    <rect
       id="rect4925"
       style="opacity:0.95;fill:none;fill-opacity:0.95;stroke:none"
       width="1"
       height="13"
       x="34"
       y="12" />
  </g>
  <g
     id="normal-right"
     transform="translate(0,34)">
    <path
       id="rect4929"
       style="opacity:0.1;fill:currentColor;fill-opacity:0.95;stroke:none"
       d="M 31 46 L 31 59 L 33 59 L 34 59 L 34 46 L 33 46 L 31 46 z"
       transform="translate(0,-34)"
       class="ColorScheme-Text" />
    <rect
       id="rect4933"
       style="opacity:0.95;fill:none;fill-opacity:0.95;stroke:none"
       width="1"
       height="13"
       x="34"
       y="12" />
  </g>
  <g
     id="normal-center"
     transform="matrix(0.96296296,0,0,1,0.1851852,41.9)">
    <rect
       id="rect4937"
       style="opacity:0.1;fill:currentColor;fill-opacity:0.95;stroke:none"
       width="27"
       height="13"
       x="5"
       y="4.1"
       class="ColorScheme-Text" />
  </g>
  <g
     id="normal-top"
     transform="matrix(1,0,0,-1,0,72)">
    <path
       id="rect4941"
       style="opacity:0.1;fill:currentColor;fill-opacity:0.95;stroke:none"
       d="M 5 43 L 5 44 L 5 46 L 31 46 L 31 44 L 31 43 L 5 43 z"
       transform="matrix(1,0,0,-1,0,72)"
       class="ColorScheme-Text" />
  </g>
  <g
     id="normal-topleft"
     transform="matrix(0,-1,-1,0,23,77)">
    <rect
       id="rect4947"
       style="opacity:0.95;fill:none;fill-opacity:0.95;stroke:none"
       width="3"
       height="1"
       x="31"
       y="21" />
    <path
       id="rect4949"
       style="opacity:0.1;fill:currentColor;fill-opacity:0.95;stroke:none"
       d="M 3 43 C 2 43 2 44 2 44 L 2 46 L 3 46 L 5 46 L 5 44 L 5 43 L 3 43 z"
       transform="matrix(0,-1,-1,0,77,23)"
       class="ColorScheme-Text" />
  </g>
  <g
     id="normal-topright"
     transform="matrix(1,0,0,-1,0,64)">
    <rect
       id="rect4955"
       style="opacity:0.95;fill:none;fill-opacity:0.95;stroke:none"
       width="1"
       height="3"
       x="34"
       y="-21"
       transform="scale(1,-1)" />
    <path
       id="rect4957"
       style="opacity:0.1;fill:currentColor;fill-opacity:0.95;stroke:none"
       d="M 31 43 L 31 44 L 31 46 L 33 46 L 34 46 L 34 44 C 34 43 33 43 33 43 L 31 43 z"
       transform="matrix(1,0,0,-1,0,64)"
       class="ColorScheme-Text" />
  </g>
  <g
     id="minimized-left"
     transform="matrix(-1,0,0,-1.0000002,36,134)">
    <path
       id="rect5177"
       style="opacity:0.05;fill:currentColor;fill-opacity:0.95;stroke:none"
       d="M 2 109 L 2 122 L 3 122 L 5 122 L 5 109 L 3 109 L 2 109 z"
       transform="matrix(-1,0,0,-0.9999998,36,133.99997)"
       class="ColorScheme-Text" />
    <rect
       id="rect5181"
       style="opacity:0.95;fill:none;fill-opacity:0.95;stroke:none"
       width="1"
       height="13"
       x="34"
       y="12" />
  </g>
  <g
     id="minimized-right"
     transform="translate(0,96.999988)">
    <path
       id="rect5185"
       style="opacity:0.05;fill:currentColor;fill-opacity:0.95;stroke:none"
       d="M 31 109 L 31 122 L 33 122 L 34 122 L 34 109 L 33 109 L 31 109 z"
       transform="translate(0,-96.999988)"
       class="ColorScheme-Text" />
    <rect
       id="rect5189"
       style="opacity:0.95;fill:none;fill-opacity:0.95;stroke:none"
       width="1"
       height="13"
       x="34"
       y="12" />
  </g>
  <g
     id="minimized-center"
     transform="matrix(0.96296296,0,0,1.0000002,0.1851852,104.89999)">
    <rect
       id="rect5193"
       style="opacity:0.05;fill:currentColor;fill-opacity:0.95;stroke:none"
       width="27"
       height="13"
       x="5"
       y="4.1"
       class="ColorScheme-Text" />
  </g>
  <g
     id="minimized-top"
     transform="matrix(1,0,0,-1.0000002,0,135.00001)">
    <path
       id="rect5197"
       style="opacity:0.05;fill:currentColor;fill-opacity:0.95;stroke:none"
       d="M 5 106 L 5 107 L 5 109 L 31 109 L 31 107 L 31 106 L 5 106 z"
       transform="matrix(1,0,0,-0.9999998,0,134.99998)"
       class="ColorScheme-Text" />
  </g>
  <g
     id="minimized-topleft"
     transform="matrix(0,-1.0000002,-1,0,23,140.00002)">
    <rect
       id="rect5203"
       style="opacity:0.95;fill:none;fill-opacity:0.95;stroke:none"
       width="3"
       height="1"
       x="31"
       y="21" />
    <path
       id="rect5205"
       style="opacity:0.05;fill:currentColor;fill-opacity:0.95;stroke:none"
       d="M 3 106 C 2 106 2 107 2 107 L 2 109 L 3 109 L 5 109 L 5 107 L 5 106 L 3 106 z"
       transform="matrix(0,-1,-0.9999998,0,139.99999,23)"
       class="ColorScheme-Text" />
  </g>
  <g
     id="minimized-topright"
     transform="matrix(1,0,0,-1.0000002,0,127)">
    <rect
       id="rect5211"
       style="opacity:0.95;fill:none;fill-opacity:0.95;stroke:none"
       width="1"
       height="3"
       x="34"
       y="-21"
       transform="scale(1,-1)" />
    <path
       id="rect5213"
       style="opacity:0.05;fill:currentColor;fill-opacity:0.95;stroke:none"
       d="M 31 106 L 31 107 L 31 109 L 33 109 L 34 109 L 34 107 C 34 106 33 106 33 106 L 31 106 z"
       transform="matrix(1,0,0,-0.9999998,0,126.99997)"
       class="ColorScheme-Text" />
  </g>
  <g
     id="progress-bottom"
     transform="translate(1e-7,-9)">
    <path
       id="rect4922"
       style="color:#3daee9;opacity:0.001;fill:#000000;fill-opacity:0.95;stroke:none"
       d="M 5 17 L 5 19 L 5 20 L 31 20 L 31 19 L 31 17 L 5 17 z"
       transform="translate(-1e-7,9)" />
    <path
       id="path4438"
       style="opacity:0.95;fill:currentColor;fill-opacity:0.95;stroke:none"
       d="m 5,18 0,1 0,1 26,0 0,-1 0,-1 z"
       transform="translate(-1e-7,9)"
       class="ColorScheme-PositiveText" />
  </g>
  <g
     id="progress-bottomleft"
     transform="matrix(0,1,-1,0,23,-14.000001)">
    <rect
       id="rect4928"
       style="opacity:0.95;fill:none;fill-opacity:0.95;stroke:none"
       width="3"
       height="1"
       x="31"
       y="21" />
    <path
       id="rect4930"
       style="color:#3daee9;opacity:0.001;fill:#000000;fill-opacity:0.95;stroke:none"
       d="M 2 17 L 2 19 C 2 19 2 20 3 20 L 5 20 L 5 19 L 5 17 L 3 17 L 2 17 z"
       transform="matrix(0,-1,1,0,14.000001,23)" />
    <path
       id="path4440"
       style="opacity:0.95;fill:currentColor;fill-opacity:0.95;stroke:none"
       d="m 2,18 0,1 c 0,0 0,1 1,1 l 2,0 0,-1 0,-1 -2,0 z"
       transform="matrix(0,-1,1,0,14.000001,23)"
       class="ColorScheme-PositiveText" />
  </g>
  <g
     id="progress-bottomright"
     transform="translate(1e-7,-1)">
    <rect
       id="rect4936"
       style="opacity:0.95;fill:none;fill-opacity:0.95;stroke:none"
       width="1"
       height="3"
       x="34"
       y="-21"
       transform="scale(1,-1)" />
    <path
       id="rect4938"
       style="color:#3daee9;opacity:0.001;fill:#000000;fill-opacity:0.95;stroke:none"
       d="M 31 17 L 31 19 L 31 20 L 33 20 C 33 20 34 20 34 19 L 34 17 L 33 17 L 31 17 z"
       transform="translate(-1e-7,1)" />
    <path
       id="path4442"
       style="opacity:0.95;fill:currentColor;fill-opacity:0.95;stroke:none"
       d="m 31,18 0,1 0,1 2,0 c 0,0 1,0 1,-1 l 0,-1 -1,0 z"
       transform="translate(-1e-7,1)"
       class="ColorScheme-PositiveText" />
  </g>
  <g
     id="focus-bottom"
     transform="translate(0,12)">
    <path
       id="rect4944"
       style="opacity:0.1;fill:currentColor;fill-opacity:0.95;stroke:none"
       d="M 5 38 L 5 40 L 5 41 L 31 41 L 31 40 L 31 38 L 5 38 z"
       transform="translate(0,-12)"
       class="ColorScheme-ButtonFocus" />
    <path
       id="path4444"
       style="opacity:0.95;fill:currentColor;fill-opacity:0.95;stroke:none"
       d="m 5,39 0,1 0,1 26,0 0,-1 0,-1 z"
       transform="translate(0,-12)"
       class="ColorScheme-ButtonFocus" />
  </g>
  <g
     id="focus-bottomleft"
     transform="matrix(0,1,-1,0,23,7)">
    <rect
       id="rect4950"
       style="opacity:0.95;fill:none;fill-opacity:0.95;stroke:none"
       width="3"
       height="1"
       x="31"
       y="21" />
    <path
       id="rect4952"
       style="opacity:0.1;fill:currentColor;fill-opacity:0.95;stroke:none"
       d="M 2 38 L 2 40 C 2 40 2 41 3 41 L 5 41 L 5 40 L 5 38 L 3 38 L 2 38 z"
       transform="matrix(0,-1,1,0,-7,23)"
       class="ColorScheme-ButtonFocus" />
    <path
       id="path4446"
       style="opacity:0.95;fill:currentColor;fill-opacity:0.95;stroke:none"
       d="m 2,39 0,1 c 0,0 0,1 1,1 l 2,0 0,-1 0,-1 -2,0 z"
       transform="matrix(0,-1,1,0,-7,23)"
       class="ColorScheme-ButtonFocus" />
  </g>
  <g
     id="focus-bottomright"
     transform="translate(0,20)">
    <rect
       id="rect4959"
       style="opacity:0.95;fill:none;fill-opacity:0.95;stroke:none"
       width="1"
       height="3"
       x="34"
       y="-21"
       transform="scale(1,-1)" />
    <path
       id="rect4961"
       style="opacity:0.1;fill:currentColor;fill-opacity:0.95;stroke:none"
       d="M 31 38 L 31 40 L 31 41 L 33 41 C 33 41 34 41 34 40 L 34 38 L 33 38 L 31 38 z"
       transform="translate(0,-20)"
       class="ColorScheme-ButtonFocus" />
    <path
       id="path4448"
       style="opacity:0.95;fill:currentColor;fill-opacity:0.95;stroke:none"
       d="m 31,39 0,1 0,1 2,0 c 0,0 1,0 1,-1 l 0,-1 -1,0 z"
       transform="translate(0,-20)"
       class="ColorScheme-ButtonFocus" />
  </g>
  <g
     id="normal-bottom"
     transform="translate(0,33)">
    <path
       id="rect4967"
       style="opacity:0.1;fill:currentColor;fill-opacity:0.95;stroke:none"
       d="M 5 59 L 5 61 L 5 62 L 31 62 L 31 61 L 31 59 L 5 59 z"
       transform="translate(0,-33)"
       class="ColorScheme-Text" />
  </g>
  <g
     id="normal-bottomleft"
     transform="matrix(0,1,-1,0,23,28)">
    <rect
       id="rect4973"
       style="opacity:0.95;fill:none;fill-opacity:0.95;stroke:none"
       width="3"
       height="1"
       x="31"
       y="21" />
    <path
       id="rect4975"
       style="opacity:0.1;fill:currentColor;fill-opacity:0.95;stroke:none"
       d="M 2 59 L 2 61 C 2 61 2 62 3 62 L 5 62 L 5 61 L 5 59 L 3 59 L 2 59 z"
       transform="matrix(0,-1,1,0,-28,23)"
       class="ColorScheme-Text" />
  </g>
  <g
     id="normal-bottomright"
     transform="translate(0,41)">
    <rect
       id="rect4981"
       style="opacity:0.95;fill:none;fill-opacity:0.95;stroke:none"
       width="1"
       height="3"
       x="34"
       y="-21"
       transform="scale(1,-1)" />
    <path
       id="rect4983"
       style="opacity:0.1;fill:currentColor;fill-opacity:0.95;stroke:none"
       d="M 31 59 L 31 61 L 31 62 L 33 62 C 33 62 34 62 34 61 L 34 59 L 33 59 L 31 59 z"
       transform="translate(0,-41)"
       class="ColorScheme-Text" />
  </g>
  <g
     id="hover-bottom"
     transform="translate(0,54)">
    <path
       id="rect4989"
       style="opacity:0.1;fill:currentColor;fill-opacity:0.95;stroke:none"
       d="M 5 80 L 5 82 L 5 83 L 31 83 L 31 82 L 31 80 L 5 80 z"
       transform="translate(0,-54)"
       class="ColorScheme-ButtonHover" />
    <path
       id="path4450"
       style="opacity:0.95;fill:currentColor;fill-opacity:0.95;stroke:none"
       d="m 5,81 0,1 0,1 26,0 0,-1 0,-1 z"
       transform="translate(0,-54)"
       class="ColorScheme-ButtonHover" />
  </g>
  <g
     id="hover-bottomleft"
     transform="matrix(0,1,-1,0,23,49)">
    <rect
       id="rect4995"
       style="opacity:0.95;fill:none;fill-opacity:0.95;stroke:none"
       width="3"
       height="1"
       x="31"
       y="21" />
    <path
       id="rect4997"
       style="opacity:0.1;fill:currentColor;fill-opacity:0.95;stroke:none"
       d="M 2 80 L 2 82 C 2 82 2 83 3 83 L 5 83 L 5 82 L 5 80 L 3 80 L 2 80 z"
       transform="matrix(0,-1,1,0,-49,23)"
       class="ColorScheme-ButtonHover" />
    <path
       id="path4452"
       style="opacity:0.95;fill:currentColor;fill-opacity:0.95;stroke:none"
       d="m 2,81 0,1 c 0,0 0,1 1,1 l 2,0 0,-1 0,-1 -2,0 z"
       transform="matrix(0,-1,1,0,-49,23)"
       class="ColorScheme-ButtonHover" />
  </g>
  <g
     id="hover-bottomright"
     transform="translate(0,62)">
    <rect
       id="rect5003"
       style="opacity:0.95;fill:none;fill-opacity:0.95;stroke:none"
       width="1"
       height="3"
       x="34"
       y="-21"
       transform="scale(1,-1)" />
    <path
       id="rect5005"
       style="opacity:0.1;fill:currentColor;fill-opacity:0.95;stroke:none"
       d="M 31 80 L 31 82 L 31 83 L 33 83 C 33 83 34 83 34 82 L 34 80 L 33 80 L 31 80 z"
       transform="translate(0,-62)"
       class="ColorScheme-ButtonHover" />
    <path
       id="path4454"
       style="opacity:0.95;fill:currentColor;fill-opacity:0.95;stroke:none"
       d="m 31,81 0,1 0,1 2,0 c 0,0 1,0 1,-1 l 0,-1 -1,0 z"
       transform="translate(0,-62)"
       class="ColorScheme-ButtonHover" />
  </g>
  <g
     id="attention-bottom"
     transform="translate(0,75)">
    <path
       id="rect5011"
       style="opacity:0.95;fill:currentColor;fill-opacity:0.95;stroke:none"
       d="M 5 101 L 5 103 L 5 104 L 31 104 L 31 103 L 31 101 L 5 101 z"
       transform="translate(0,-75)"
       class="ColorScheme-NeutralText" />
  </g>
  <g
     id="attention-bottomleft"
     transform="matrix(0,1,-1,0,23,70)">
    <rect
       id="rect5017"
       style="opacity:0.95;fill:none;fill-opacity:0.95;stroke:none"
       width="3"
       height="1"
       x="31"
       y="21" />
    <path
       id="rect5019"
       style="opacity:0.95;fill:currentColor;fill-opacity:0.95;stroke:none"
       d="M 2 101 L 2 103 C 2 103 2 104 3 104 L 5 104 L 5 103 L 5 101 L 3 101 L 2 101 z"
       transform="matrix(0,-1,1,0,-70,23)"
       class="ColorScheme-NeutralText" />
  </g>
  <g
     id="attention-bottomright"
     transform="translate(0,83)">
    <rect
       id="rect5025"
       style="opacity:0.95;fill:none;fill-opacity:0.95;stroke:none"
       width="1"
       height="3"
       x="34"
       y="-21"
       transform="scale(1,-1)" />
    <path
       id="rect5027"
       style="opacity:0.95;fill:currentColor;fill-opacity:0.95;stroke:none"
       d="M 31 101 L 31 103 L 31 104 L 33 104 C 33 104 34 104 34 103 L 34 101 L 33 101 L 31 101 z"
       transform="translate(0,-83)"
       class="ColorScheme-NeutralText" />
  </g>
  <g
     id="minimized-bottom"
     transform="translate(0,95.99999)">
    <path
       id="rect5033"
       style="opacity:0.05;fill:currentColor;fill-opacity:0.95;stroke:none"
       d="M 5 122 L 5 124 L 5 125 L 31 125 L 31 124 L 31 122 L 5 122 z"
       transform="translate(0,-95.99999)"
       class="ColorScheme-Text" />
  </g>
  <g
     id="minimized-bottomleft"
     transform="matrix(0,1.0000002,-1,0,23,90.99998)">
    <rect
       id="rect5039"
       style="opacity:0.95;fill:none;fill-opacity:0.95;stroke:none"
       width="3"
       height="1"
       x="31"
       y="21" />
    <path
       id="rect5041"
       style="opacity:0.05;fill:currentColor;fill-opacity:0.95;stroke:none"
       d="M 2 122 L 2 124 C 2 124 2 125 3 125 L 5 125 L 5 124 L 5 122 L 3 122 L 2 122 z"
       transform="matrix(0,-1,0.9999998,0,-90.999962,23)"
       class="ColorScheme-Text" />
  </g>
  <g
     id="minimized-bottomright"
     transform="translate(0,104)">
    <rect
       id="rect5047"
       style="opacity:0.95;fill:none;fill-opacity:0.95;stroke:none"
       width="1"
       height="3"
       x="34"
       y="-21"
       transform="scale(1,-1)" />
    <path
       id="rect5049"
       style="opacity:0.05;fill:currentColor;fill-opacity:0.95;stroke:none"
       d="M 31 122 L 31 124 L 31 125 L 33 125 C 33 125 34 125 34 124 L 34 122 L 33 122 L 31 122 z"
       transform="translate(0,-104)"
       class="ColorScheme-Text" />
  </g>
  <g
     id="group-expander-left"
     transform="translate(60,-12)">
    <path
       id="rect2993-2-5-3-7-0-0-1-3"
       style="color:#000000;display:inline;overflow:visible;visibility:visible;fill:#00bcd4;fill-opacity:0.95;fill-rule:nonzero;stroke:none;stroke-width:1.5;marker:none;enable-background:accumulate"
       d="M 12,46 19,41.996831 12,38 Z" />
    <path
       id="center-3-2-8-5-6-8"
       style="opacity:0.27000002;fill:none;stroke:none;filter:url(#filter7986-7-9-7-4-5-5)"
       d="m -24.984217,27.981458 0,10 10,0 0,-10 -10,0 z"
       mask="none"
       transform="matrix(1,0,0,-1.2,36.984217,81.57775)" />
  </g>
  <g
     id="group-expander-bottom"
     transform="translate(37,9)">
    <path
       id="rect2993-2-5-3-7-0-0-11-1"
       style="color:#000000;display:inline;overflow:visible;visibility:visible;fill:#00bcd4;fill-opacity:0.95;fill-rule:nonzero;stroke:none;stroke-width:1.5;marker:none;enable-background:accumulate"
       d="M 25,47 29.003169,40 33,47 Z" />
    <path
       id="center-3-2-8-5-9-9"
       style="opacity:0.27000002;fill:none;stroke:none;filter:url(#filter7986-7-9-7-4-2-6)"
       d="m -24.984217,27.981458 0,10 10,0 0,-10 -10,0 z"
       mask="none"
       transform="matrix(0,-1,1.2,0,-10.57775,22.015783)" />
  </g>
  <g
     id="group-expander-top"
     transform="translate(38,9)">
    <path
       id="rect2993-2-5-3-7-0-0-16-39"
       style="color:#000000;display:inline;overflow:visible;visibility:visible;fill:#00bcd4;fill-opacity:0.95;fill-rule:nonzero;stroke:none;stroke-width:1.5;marker:none;enable-background:accumulate"
       d="M 47,37 42.996831,44 39,37 Z" />
    <path
       id="center-3-2-8-5-3-3"
       style="opacity:0.27000002;fill:none;stroke:none;filter:url(#filter7986-7-9-7-4-1-5)"
       d="m -24.984217,27.981458 0,10 10,0 0,-10 -10,0 z"
       mask="none"
       transform="matrix(0,1,-1.2,0,82.57775,61.984217)" />
  </g>
  <g
     id="group-expander-right"
     transform="translate(60,-12)">
    <path
       id="center-3-2-8-5-1"
       style="opacity:0.27000002;fill:none;stroke:none;filter:url(#filter7986-7-9-7-4-0)"
       d="m -24.984217,27.981458 0,10 10,0 0,-10 -10,0 z"
       mask="none"
       transform="matrix(-1,0,0,-1.2,-14.984217,81.57775)" />
    <path
       id="rect2993-2-5-3-7-0-0-0"
       style="color:#000000;display:inline;overflow:visible;visibility:visible;fill:#00bcd4;fill-opacity:0.95;fill-rule:nonzero;stroke:none;stroke-width:1.5;marker:none;enable-background:accumulate"
       d="M 10,46 3,41.996831 10,38 Z" />
  </g>
</svg>
