{
  "name": "Themer Dark",
  "type": "dark",
  "semanticHighlighting": true,
  "colors": {
    "focusBorder": "#8cdcfc",
    "foreground": "#ffffff",
    "widget.shadow": "#122327",
    "selection.background": "#566265",
    "descriptionForeground": "#dde0e0",
    "errorForeground": "#fd2e59",
    "icon.foreground": "#dde0e0",
    "sash.hoverBorder": "#3b96ff",
    "textBlockQuote.background": "#344246",
    "textBlockQuote.border": "#344246",
    "textCodeBlock.background": "#122327",
    "textLink.activeForeground": "#21c7ca",
    "textLink.foreground": "#3b96ff",
    "textPreformat.foreground": "#ff716a",
    "textSeparator.foreground": "#99a1a2",
    "button.background": "#3b96ff",
    "button.foreground": "#122327",
    "button.hoverBackground": "#21c7ca",
    "button.secondaryForeground": "#122327",
    "button.secondaryBackground": "#dde0e0",
    "button.secondaryHoverBackground": "#bbc0c1",
    "checkbox.background": "#3b96ff",
    "checkbox.foreground": "#122327",
    "checkbox.border": "#344246",
    "dropdown.background": "#344246",
    "dropdown.listBackground": "#344246",
    "dropdown.border": "#344246",
    "dropdown.foreground": "#dde0e0",
    "input.background": "#344246",
    "input.border": "#344246",
    "input.foreground": "#dde0e0",
    "input.placeholderForeground": "#566265",
    "inputOption.activeBackground": "#566265",
    "inputOption.activeBorder": "#21c7ca",
    "inputOption.activeForeground": "#ffffff",
    "inputValidation.errorBackground": "#344246",
    "inputValidation.errorForeground": "#fd2e59",
    "inputValidation.errorBorder": "#fd2e59",
    "inputValidation.infoBackground": "#344246",
    "inputValidation.infoForeground": "#3b96ff",
    "inputValidation.infoBorder": "#3b96ff",
    "inputValidation.warningBackground": "#344246",
    "inputValidation.warningForeground": "#ff716a",
    "inputValidation.warningBorder": "#ff716a",
    "scrollbar.shadow": "#122327",
    "scrollbarSlider.activeBackground": "#bbc0c17f",
    "scrollbarSlider.background": "#7881847f",
    "scrollbarSlider.hoverBackground": "#99a1a27f",
    "badge.foreground": "#122327",
    "badge.background": "#8cdcfc",
    "progressBar.background": "#6ccc2d",
    "list.activeSelectionBackground": "#8cdcfc33",
    "list.activeSelectionForeground": "#ffffff",
    "list.dropBackground": "#344246",
    "list.focusBackground": "#7881843f",
    "list.focusForeground": "#ffffff",
    "list.highlightForeground": "#ffbf40",
    "list.hoverBackground": "#34424633",
    "list.hoverForeground": "#ffffff",
    "list.inactiveSelectionBackground": "#5662653f",
    "list.inactiveSelectionForeground": "#dde0e0",
    "list.inactiveFocusBackground": "#3442463f",
    "list.invalidItemForeground": "#fd2e59",
    "list.errorForeground": "#fd2e59",
    "list.warningForeground": "#ffbf40",
    "listFilterWidget.background": "#344246",
    "listFilterWidget.outline": "#3b96ff",
    "listFilterWidget.noMatchesOutline": "#fd2e59",
    "list.filterMatchBackground": "#ffbf4033",
    "list.filterMatchBorder": "#ffbf4033",
    "tree.indentGuidesStroke": "#344246",
    "list.deemphasizedForeground": "#99a1a2",
    "activityBar.background": "#122327",
    "activityBar.dropBorder": "#3b96ff",
    "activityBar.foreground": "#bbc0c1",
    "activityBar.inactiveForeground": "#99a1a2",
    "activityBar.border": "#122327",
    "activityBarBadge.background": "#8cdcfc",
    "activityBarBadge.foreground": "#122327",
    "activityBar.activeBorder": "#dde0e0",
    "activityBar.activeBackground": "#34424633",
    "activityBar.activeFocusBorder": "#8cdcfc",
    "sideBar.background": "#122327",
    "sideBar.foreground": "#dde0e0",
    "sideBar.border": "#344246",
    "sideBar.dropBackground": "#3442463f",
    "sideBarTitle.foreground": "#bbc0c1",
    "sideBarSectionHeader.background": "#566265",
    "sideBarSectionHeader.foreground": "#dde0e0",
    "sideBarSectionHeader.border": "#122327",
    "minimap.findMatchHighlight": "#ffbf40",
    "minimap.selectionHighlight": "#3b96ff80",
    "minimap.errorHighlight": "#fd2e5980",
    "minimap.warningHighlight": "#ff716a80",
    "minimap.background": "#122327",
    "minimapSlider.background": "#34424633",
    "minimapSlider.hoverBackground": "#56626533",
    "minimapSlider.activeBackground": "#78818433",
    "minimapGutter.addedBackground": "#6ccc2d80",
    "minimapGutter.modifiedBackground": "#ffbf4080",
    "minimapGutter.deletedBackground": "#fd2e5980",
    "editorGroup.border": "#344246",
    "editorGroup.dropBackground": "#5662657f",
    "editorGroupHeader.noTabsBackground": "#122327",
    "editorGroupHeader.tabsBackground": "#122327",
    "editorGroupHeader.tabsBorder": "#122327",
    "editorGroupHeader.border": "#122327",
    "editorGroup.emptyBackground": "#122327",
    "editorGroup.focusedEmptyBorder": "#344246",
    "tab.activeBackground": "#122327",
    "tab.unfocusedActiveBackground": "#122327",
    "tab.activeForeground": "#dde0e0",
    "tab.border": "#122327",
    "tab.lastPinnedBorder": "#ff1aba",
    "tab.inactiveBackground": "#344246",
    "tab.unfocusedInactiveBackground": "#344246",
    "tab.inactiveForeground": "#788184",
    "tab.unfocusedActiveForeground": "#788184",
    "tab.unfocusedInactiveForeground": "#566265",
    "tab.hoverBackground": "#34424680",
    "tab.unfocusedHoverBackground": "#34424680",
    "tab.hoverForeground": "#bbc0c1",
    "tab.unfocusedHoverForeground": "#99a1a2",
    "tab.activeModifiedBorder": "#ffbf40",
    "tab.inactiveModifiedBorder": "#ffbf40",
    "tab.unfocusedActiveModifiedBorder": "#ffbf40",
    "tab.unfocusedInactiveModifiedBorder": "#ffbf40",
    "editorPane.background": "#122327",
    "editor.background": "#122327",
    "editor.foreground": "#ffffff",
    "editorLineNumber.foreground": "#566265",
    "editorLineNumber.activeForeground": "#99a1a2",
    "editorCursor.background": "#122327",
    "editorCursor.foreground": "#8cdcfc",
    "editor.selectionBackground": "#3b96ff33",
    "editor.selectionForeground": "#ffffff",
    "editor.inactiveSelectionBackground": "#3b96ff33",
    "editor.selectionHighlightBackground": "#344246",
    "editor.wordHighlightBackground": "#8cdcfc33",
    "editor.wordHighlightStrongBackground": "#ff1aba33",
    "editor.findMatchBackground": "#ffbf403f",
    "editor.findMatchHighlightBackground": "#ffbf4033",
    "editor.findRangeHighlightBackground": "#344246",
    "editor.hoverHighlightBackground": "#5662657f",
    "editor.lineHighlightBackground": "#122327",
    "editor.lineHighlightBorder": "#344246",
    "editorLink.activeForeground": "#21c7ca",
    "editor.rangeHighlightBackground": "#ffbf4033",
    "editor.symbolHighlightBackground": "#8cdcfc33",
    "editorWhitespace.foreground": "#344246",
    "editorIndentGuide.background": "#344246",
    "editorIndentGuide.activeBackground": "#566265",
    "editorRuler.foreground": "#344246",
    "editorCodeLens.foreground": "#bbc0c1",
    "editorLightBulb.foreground": "#ffbf40",
    "editorLightBulbAutoFix.foreground": "#3b96ff",
    "editorBracketMatch.background": "#344246",
    "editorBracketMatch.border": "#566265",
    "editorBracketHighlight.foreground1": "#ffffff",
    "editorBracketHighlight.foreground2": "#ffbf40",
    "editorBracketHighlight.foreground3": "#21c7ca",
    "editorBracketHighlight.foreground4": "#8cdcfc",
    "editorBracketHighlight.foreground5": "#6ccc2d",
    "editorBracketHighlight.foreground6": "#3b96ff",
    "editor.foldBackground": "#34424666",
    "editorOverviewRuler.border": "#344246",
    "editorOverviewRuler.findMatchForeground": "#ffbf40bf",
    "editorOverviewRuler.rangeHighlightForeground": "#566265bf",
    "editorOverviewRuler.selectionHighlightForeground": "#344246bf",
    "editorOverviewRuler.wordHighlightForeground": "#566265bf",
    "editorOverviewRuler.wordHighlightStrongForeground": "#788184bf",
    "editorOverviewRuler.modifiedForeground": "#ffbf407f",
    "editorOverviewRuler.addedForeground": "#6ccc2d7f",
    "editorOverviewRuler.deletedForeground": "#fd2e597f",
    "editorOverviewRuler.errorForeground": "#fd2e597f",
    "editorOverviewRuler.warningForeground": "#ff716a7f",
    "editorOverviewRuler.infoForeground": "#3b96ff7f",
    "editorOverviewRuler.bracketMatchForeground": "#788184",
    "editorError.foreground": "#fd2e59",
    "editorError.border": "#ffffff",
    "editorWarning.foreground": "#ff716a",
    "editorWarning.border": "#dde0e0",
    "editorInfo.foreground": "#3b96ff",
    "editorInfo.border": "#bbc0c1",
    "editorHint.foreground": "#ff1aba",
    "editorHint.border": "#99a1a2",
    "problemsErrorIcon.foreground": "#fd2e59",
    "problemsWarningIcon.foreground": "#ff716a",
    "problemsInfoIcon.foreground": "#3b96ff",
    "editorUnnecessaryCode.opacity": "#0000007f",
    "editorGutter.background": "#122327",
    "editorGutter.modifiedBackground": "#ffbf40",
    "editorGutter.addedBackground": "#6ccc2d",
    "editorGutter.deletedBackground": "#fd2e59",
    "editorGutter.commentRangeForeground": "#788184",
    "editorGutter.foldingControlForeground": "#bbc0c1",
    "diffEditor.insertedTextBackground": "#6ccc2d20",
    "diffEditor.removedTextBackground": "#fd2e5920",
    "diffEditor.border": "#344246",
    "diffEditor.diagonalFill": "#3442467f",
    "editorWidget.foreground": "#dde0e0",
    "editorWidget.background": "#344246",
    "editorWidget.border": "#344246",
    "editorWidget.resizeBorder": "#3b96ff",
    "editorSuggestWidget.background": "#344246",
    "editorSuggestWidget.border": "#344246",
    "editorSuggestWidget.foreground": "#dde0e0",
    "editorSuggestWidget.highlightForeground": "#ff1aba",
    "editorSuggestWidget.selectedBackground": "#566265",
    "editorHoverWidget.foreground": "#dde0e0",
    "editorHoverWidget.background": "#344246",
    "editorHoverWidget.border": "#344246",
    "editorHoverWidget.statusBarBackground": "#3b96ff33",
    "debugExceptionWidget.background": "#344246",
    "debugExceptionWidget.border": "#344246",
    "editorMarkerNavigation.background": "#344246",
    "editorMarkerNavigationError.background": "#fd2e59",
    "editorMarkerNavigationWarning.background": "#ff716a",
    "editorMarkerNavigationInfo.background": "#3b96ff",
    "peekView.border": "#ff1aba",
    "peekViewEditor.background": "#3442467f",
    "peekViewEditorGutter.background": "#3442467f",
    "peekViewEditor.matchHighlightBackground": "#ffbf407f",
    "peekViewResult.background": "#344246",
    "peekViewResult.fileForeground": "#dde0e0",
    "peekViewResult.lineForeground": "#566265",
    "peekViewResult.matchHighlightBackground": "#ffbf40",
    "peekViewResult.selectionBackground": "#788184",
    "peekViewResult.selectionForeground": "#ffffff",
    "peekViewTitle.background": "#344246",
    "peekViewTitleDescription.foreground": "#bbc0c1",
    "peekViewTitleLabel.foreground": "#ffffff",
    "merge.currentHeaderBackground": "#21c7ca4c",
    "merge.currentContentBackground": "#21c7ca4c",
    "merge.incomingHeaderBackground": "#3b96ff4c",
    "merge.incomingContentBackground": "#3b96ff4c",
    "merge.border": "#99a1a2",
    "merge.commonContentBackground": "#8cdcfc4c",
    "merge.commonHeaderBackground": "#8cdcfc4c",
    "editorOverviewRuler.currentContentForeground": "#21c7ca",
    "editorOverviewRuler.incomingContentForeground": "#3b96ff",
    "editorOverviewRuler.commonContentForeground": "#8cdcfc",
    "panel.background": "#122327",
    "panel.border": "#344246",
    "panel.dropBorder": "#3b96ff",
    "panelTitle.activeBorder": "#788184",
    "panelTitle.activeForeground": "#dde0e0",
    "panelTitle.inactiveForeground": "#99a1a2",
    "panelSection.border": "#344246",
    "panelSection.dropBackground": "#3442463f",
    "panelSectionHeader.background": "#566265",
    "panelSectionHeader.foreground": "#dde0e0",
    "panelSectionHeader.border": "#122327",
    "statusBar.background": "#3b96ff",
    "statusBar.foreground": "#122327",
    "statusBar.border": "#122327",
    "statusBar.debuggingBackground": "#ff716a",
    "statusBar.debuggingForeground": "#122327",
    "statusBar.debuggingBorder": "#122327",
    "statusBar.noFolderBackground": "#8cdcfc",
    "statusBar.noFolderForeground": "#122327",
    "statusBar.noFolderBorder": "#122327",
    "statusBarItem.activeBackground": "#21c7ca",
    "statusBarItem.hoverBackground": "#6ccc2d",
    "statusBarItem.prominentBackground": "#21c7ca",
    "statusBarItem.prominentHoverBackground": "#6ccc2d",
    "statusBarItem.remoteBackground": "#21c7ca",
    "statusBarItem.remoteForeground": "#122327",
    "statusBarItem.errorBackground": "#fd2e59",
    "statusBarItem.errorForeground": "#122327",
    "titleBar.activeBackground": "#122327",
    "titleBar.activeForeground": "#bbc0c1",
    "titleBar.inactiveBackground": "#122327",
    "titleBar.inactiveForeground": "#788184",
    "menubar.selectionForeground": "#ffffff",
    "menubar.selectionBackground": "#344246",
    "menu.foreground": "#dde0e0",
    "menu.background": "#122327",
    "menu.selectionForeground": "#ffffff",
    "menu.selectionBackground": "#344246",
    "menu.separatorBackground": "#566265",
    "notificationCenterHeader.foreground": "#dde0e0",
    "notificationCenterHeader.background": "#566265",
    "notificationToast.border": "#788184",
    "notifications.foreground": "#ffffff",
    "notifications.background": "#344246",
    "notifications.border": "#788184",
    "notificationLink.foreground": "#3b96ff",
    "notificationsErrorIcon.foreground": "#fd2e59",
    "notificationsWarningIcon.foreground": "#ff716a",
    "notificationsInfoIcon.foreground": "#3b96ff",
    "extensionButton.prominentForeground": "#122327",
    "extensionButton.prominentBackground": "#3b96ff",
    "extensionButton.prominentHoverBackground": "#21c7ca",
    "extensionBadge.remoteBackground": "#ff1aba",
    "extensionBadge.remoteForeground": "#122327",
    "pickerGroup.border": "#566265",
    "pickerGroup.foreground": "#99a1a2",
    "quickInput.background": "#344246",
    "quickInput.foreground": "#ffffff",
    "quickInputTitle.background": "#566265",
    "terminal.background": "#122327",
    "terminal.foreground": "#dde0e0",
    "terminal.ansiBlack": "#122327",
    "terminal.ansiBlue": "#3b96ff",
    "terminal.ansiBrightBlack": "#344246",
    "terminal.ansiBrightBlue": "#3b96ff",
    "terminal.ansiBrightCyan": "#21c7ca",
    "terminal.ansiBrightGreen": "#21c7ca",
    "terminal.ansiBrightMagenta": "#ff1aba",
    "terminal.ansiBrightRed": "#ff716a",
    "terminal.ansiBrightWhite": "#ffffff",
    "terminal.ansiBrightYellow": "#ffbf40",
    "terminal.ansiCyan": "#21c7ca",
    "terminal.ansiGreen": "#6ccc2d",
    "terminal.ansiMagenta": "#ff1aba",
    "terminal.ansiRed": "#fd2e59",
    "terminal.ansiWhite": "#dde0e0",
    "terminal.ansiYellow": "#ffbf40",
    "terminal.selectionBackground": "#3b96ff7f",
    "terminalCursor.background": "#344246",
    "terminalCursor.foreground": "#bbc0c1",
    "debugToolBar.background": "#344246",
    "debugToolBar.border": "#566265",
    "editor.stackFrameHighlightBackground": "#21c7ca3f",
    "editor.focusedStackFrameHighlightBackground": "#6ccc2d3f",
    "debugView.exceptionLabelForeground": "#ffbf40",
    "debugView.exceptionLabelBackground": "#344246",
    "debugView.stateLabelForeground": "#3b96ff",
    "debugView.stateLabelBackground": "#344246",
    "debugView.valueChangedHighlight": "#ffbf4033",
    "debugTokenExpression.name": "#3b96ff",
    "debugTokenExpression.value": "#ffffff",
    "debugTokenExpression.string": "#6ccc2d",
    "debugTokenExpression.boolean": "#8cdcfc",
    "debugTokenExpression.number": "#ff1aba",
    "debugTokenExpression.error": "#fd2e59",
    "testing.iconFailed": "#ff716a",
    "testing.iconErrored": "#fd2e59",
    "testing.iconPassed": "#6ccc2d",
    "testing.runAction": "#3b96ff",
    "testing.iconQueued": "#21c7ca",
    "testing.iconUnset": "#bbc0c1",
    "testing.iconSkipped": "#99a1a2",
    "testing.peekBorder": "#788184",
    "testing.message.error.decorationForeground": "#fd2e59",
    "testing.message.error.lineBackground": "#fd2e593f",
    "testing.message.warning.decorationForeground": "#ff716a",
    "testing.message.warning.lineBackground": "#ff716a3f",
    "testing.message.info.decorationForeground": "#3b96ff",
    "testing.message.info.lineBackground": "#3b96ff3f",
    "testing.message.hint.decorationForeground": "#ff1aba",
    "testing.message.hint.lineBackground": "#ff1aba3f",
    "welcomePage.background": "#122327",
    "welcomePage.buttonBackground": "#344246",
    "welcomePage.buttonHoverBackground": "#566265",
    "welcomePage.progress.background": "#3b96ff",
    "welcomePage.progress.foreground": "#122327",
    "walkThrough.embeddedEditorBackground": "#122327",
    "scm.providerBorder": "#566265",
    "gitDecoration.addedResourceForeground": "#6ccc2d",
    "gitDecoration.modifiedResourceForeground": "#ffbf40",
    "gitDecoration.stageModifiedResourceForeground": "#21c7ca",
    "gitDecoration.deletedResourceForeground": "#fd2e59",
    "gitDecoration.stageDeletedResourceForeground": "#fd2e59",
    "gitDecoration.untrackedResourceForeground": "#8cdcfc",
    "gitDecoration.ignoredResourceForeground": "#788184",
    "gitDecoration.conflictingResourceForeground": "#21c7ca",
    "gitDecoration.submoduleResourceForeground": "#ff1aba",
    "settings.headerForeground": "#ffffff",
    "settings.modifiedItemIndicator": "#21c7ca",
    "settings.dropdownBackground": "#344246",
    "settings.dropdownForeground": "#dde0e0",
    "settings.dropdownListBorder": "#566265",
    "settings.checkboxBackground": "#3b96ff",
    "settings.checkboxForeground": "#122327",
    "settings.checkboxBorder": "#3b96ff",
    "settings.textInputBackground": "#344246",
    "settings.textInputForeground": "#dde0e0",
    "settings.numberInputBackground": "#344246",
    "settings.numberInputForeground": "#dde0e0",
    "settings.focusedRowBackground": "#122327",
    "notebook.focusedRowBorder": "#8cdcfc",
    "notebook.rowHoverBackground": "#3442467f",
    "breadcrumb.foreground": "#bbc0c1",
    "breadcrumb.background": "#122327",
    "breadcrumb.focusForeground": "#dde0e0",
    "breadcrumb.activeSelectionForeground": "#ffffff",
    "breadcrumbPicker.background": "#122327",
    "editor.snippetTabstopHighlightBackground": "#3442467f",
    "editor.snippetFinalTabstopHighlightBackground": "#5662657f",
    "symbolIcon.arrayForeground": "#ff1aba",
    "symbolIcon.booleanForeground": "#8cdcfc",
    "symbolIcon.classForeground": "#3b96ff",
    "symbolIcon.colorForeground": "#21c7ca",
    "symbolIcon.constantForeground": "#6ccc2d",
    "symbolIcon.constructorForeground": "#8cdcfc",
    "symbolIcon.enumeratorForeground": "#21c7ca",
    "symbolIcon.enumeratorMemberForeground": "#3b96ff",
    "symbolIcon.eventForeground": "#ff716a",
    "symbolIcon.fieldForeground": "#fd2e59",
    "symbolIcon.fileForeground": "#dde0e0",
    "symbolIcon.folderForeground": "#bbc0c1",
    "symbolIcon.functionForeground": "#8cdcfc",
    "symbolIcon.interfaceForeground": "#fd2e59",
    "symbolIcon.keyForeground": "#ffbf40",
    "symbolIcon.keywordForeground": "#3b96ff",
    "symbolIcon.methodForeground": "#21c7ca",
    "symbolIcon.moduleForeground": "#21c7ca",
    "symbolIcon.namespaceForeground": "#3b96ff",
    "symbolIcon.nullForeground": "#fd2e59",
    "symbolIcon.numberForeground": "#ff716a",
    "symbolIcon.objectForeground": "#ffffff",
    "symbolIcon.operatorForeground": "#fd2e59",
    "symbolIcon.packageForeground": "#ff716a",
    "symbolIcon.propertyForeground": "#21c7ca",
    "symbolIcon.referenceForeground": "#ff716a",
    "symbolIcon.snippetForeground": "#bbc0c1",
    "symbolIcon.stringForeground": "#6ccc2d",
    "symbolIcon.structForeground": "#3b96ff",
    "symbolIcon.textForeground": "#ffffff",
    "symbolIcon.typeParameterForeground": "#3b96ff",
    "symbolIcon.unitForeground": "#ffbf40",
    "symbolIcon.variableForeground": "#ff716a",
    "debugIcon.breakpointForeground": "#fd2e59",
    "debugIcon.breakpointDisabledForeground": "#99a1a2",
    "debugIcon.breakpointUnverifiedForeground": "#bbc0c1",
    "debugIcon.breakpointCurrentStackframeForeground": "#6ccc2d",
    "debugIcon.breakpointStackframeForeground": "#ffbf40",
    "debugIcon.startForeground": "#6ccc2d",
    "debugIcon.pauseForeground": "#3b96ff",
    "debugIcon.stopForeground": "#fd2e59",
    "debugIcon.disconnectForeground": "#ff716a",
    "debugIcon.restartForeground": "#ff1aba",
    "debugIcon.stepOverForeground": "#ffffff",
    "debugIcon.stepIntoForeground": "#ffffff",
    "debugIcon.stepOutForeground": "#ffffff",
    "debugIcon.continueForeground": "#6ccc2d",
    "debugIcon.stepBackForeground": "#ffffff",
    "debugConsole.infoForeground": "#3b96ff",
    "debugConsole.warningForeground": "#ff716a",
    "debugConsole.errorForeground": "#fd2e59",
    "debugConsole.sourceForeground": "#8cdcfc",
    "debugConsoleInputIcon.foreground": "#99a1a2",
    "notebook.cellBorderColor": "#3442463f",
    "notebook.focusedEditorBorder": "#344246",
    "notebookStatusSuccessIcon.foreground": "#6ccc2d",
    "notebookStatusErrorIcon.foreground": "#fd2e59",
    "notebookStatusRunningIcon.foreground": "#3b96ff",
    "notebook.outputContainerBackgroundColor": "#122327",
    "notebook.cellToolbarSeparator": "#3442463f",
    "notebook.focusedCellBackground": "#3442467f",
    "notebook.cellHoverBackground": "#3442463f",
    "notebook.focusedCellBorder": "#8cdcfc",
    "notebook.focusedCellShadow": "#0000003f",
    "notebook.selectedCellBorder": "#99a1a2",
    "notebook.cellStatusBarItemHoverBackground": "#3442463f",
    "notebook.cellInsertionIndicator": "#6ccc2d",
    "notebookScrollbarSlider.background": "#7881847f",
    "notebookScrollbarSlider.hoverBackground": "#99a1a27f",
    "notebookScrollbarSlider.activeBackground": "#bbc0c17f",
    "notebook.symbolHighlightBackground": "#8cdcfc3f",
    "notebook.inactiveFocusedCellBorder": "#bbc0c1",
    "charts.foreground": "#dde0e0",
    "charts.lines": "#788184",
    "charts.red": "#fd2e59",
    "charts.blue": "#3b96ff",
    "charts.yellow": "#ffbf40",
    "charts.orange": "#ff716a",
    "charts.green": "#6ccc2d",
    "charts.purple": "#8cdcfc"
  },
  "tokenColors": [
    {
      "settings": {
        "background": "#122327",
        "foreground": "#dde0e0",
        "selectionBorder": "#bbc0c1",
        "findHighlight": "#ffbf40",
        "findHighlightForeground": "#122327",
        "activeGuide": "#ff716a",
        "bracketsForeground": "#dde0e07F",
        "bracketsOptions": "stippled_underline",
        "bracketsContentsForeground": "#dde0e07F",
        "tagsOptions": "stippled_underline"
      }
    },
    {
      "name": "Comment",
      "scope": "comment",
      "settings": {
        "foreground": "#788184"
      }
    },
    {
      "name": "Constant",
      "scope": "constant",
      "settings": {
        "foreground": "#ff1aba"
      }
    },
    {
      "name": "Entity",
      "scope": "entity",
      "settings": {
        "foreground": "#21c7ca"
      }
    },
    {
      "name": "Invalid",
      "scope": "invalid",
      "settings": {
        "foreground": "#fd2e59"
      }
    },
    {
      "name": "Keyword",
      "scope": ["keyword", "punctuation.separator.pointer-access.c"],
      "settings": {
        "foreground": "#b0bbff"
      }
    },
    {
      "name": "Storage",
      "scope": "storage",
      "settings": {
        "foreground": "#ff1aba"
      }
    },
    {
      "name": "String",
      "scope": "string",
      "settings": {
        "foreground": "#6ccc2d"
      }
    },
    {
      "name": "Support",
      "scope": "support",
      "settings": {
        "foreground": "#21c7ca"
      }
    },
    {
      "name": "Variable",
      "scope": "variable",
      "settings": {
        "foreground": "#ffffff"
      }
    },
    {
      "name": "Other",
      "scope": "variable.other.property",
      "settings": {
        "foreground": "#ffbf40"
      }
    },
    {
      "name": "Markup Heading",
      "scope": "markup.heading",
      "settings": {
        "foreground": "#21c7ca"
      }
    },
    {
      "name": "Markup Deleted",
      "scope": "markup.deleted",
      "settings": {
        "foreground": "#fd2e59"
      }
    },
    {
      "name": "Markup Inserted",
      "scope": "markup.inserted",
      "settings": {
        "foreground": "#6ccc2d"
      }
    },
    {
      "name": "Markup Changed",
      "scope": "markup.changed",
      "settings": {
        "foreground": "#ffbf40"
      }
    },
    {
      "name": "Markup Underline",
      "scope": "markup.underline",
      "settings": {
        "fontStyle": "underline"
      }
    },
    {
      "name": "Markup Underline Link",
      "scope": "markup.underline.link",
      "settings": {
        "foreground": "#3b96ff"
      }
    },
    {
      "name": "Markup List",
      "scope": "markup.list",
      "settings": {
        "foreground": "#ffffff"
      }
    },
    {
      "name": "Markup Raw",
      "scope": "markup.raw",
      "settings": {
        "foreground": "#ff1aba"
      }
    }
    
  ],
  
}
