<?xml version="1.0" encoding="UTF-8" standalone="no"?>
<svg
   inkscape:version="1.2.2 (b0a8486541, 2022-12-01)"
   sodipodi:docname="maximize.svg"
   style="enable-background:new"
   version="1.1"
   height="22"
   width="22"
   id="svg4306"
   xmlns:inkscape="http://www.inkscape.org/namespaces/inkscape"
   xmlns:sodipodi="http://sodipodi.sourceforge.net/DTD/sodipodi-0.dtd"
   xmlns="http://www.w3.org/2000/svg"
   xmlns:svg="http://www.w3.org/2000/svg"
   xmlns:rdf="http://www.w3.org/1999/02/22-rdf-syntax-ns#"
   xmlns:cc="http://creativecommons.org/ns#"
   xmlns:dc="http://purl.org/dc/elements/1.1/">
  <metadata
     id="metadata28">
    <rdf:RDF>
      <cc:Work
         rdf:about="">
        <dc:format>image/svg+xml</dc:format>
        <dc:type
           rdf:resource="http://purl.org/dc/dcmitype/StillImage" />
        <dc:title />
      </cc:Work>
    </rdf:RDF>
  </metadata>
  <defs
     id="defs26" />
  <sodipodi:namedview
     inkscape:bbox-nodes="true"
     inkscape:snap-bbox="true"
     inkscape:current-layer="svg4306"
     inkscape:window-maximized="1"
     inkscape:window-y="0"
     inkscape:window-x="0"
     inkscape:cy="5.6126601"
     inkscape:cx="47.376154"
     inkscape:zoom="11.313708"
     showgrid="true"
     id="namedview24"
     inkscape:window-height="1020"
     inkscape:window-width="1920"
     inkscape:pageshadow="2"
     inkscape:pageopacity="0"
     guidetolerance="10"
     gridtolerance="10"
     objecttolerance="10"
     borderopacity="1"
     bordercolor="#666666"
     pagecolor="#ffffff"
     inkscape:document-rotation="0"
     inkscape:pagecheckerboard="0"
     inkscape:showpageshadow="2"
     inkscape:deskcolor="#d1d1d1">
    <inkscape:grid
       id="grid853"
       type="xygrid" />
  </sodipodi:namedview>
  <style
     id="current-color-scheme"
     type="text/css">
        .ColorScheme-PositiveText {
            color:#232629;
        }
        .ColorScheme-ButtonFocus{
            color:#3daee9;
        }
            .ColorScheme-NegativeText {
            color:#da4453;
        }
    </style>
  <g
     id="active-center"
     transform="rotate(180,11,11)">
    <rect
       style="opacity:0.00100002;fill:#000000;fill-opacity:1;fill-rule:nonzero;stroke:none;stroke-width:2;stroke-linecap:round;stroke-linejoin:round;stroke-miterlimit:4;stroke-dasharray:none;stroke-opacity:1"
       y="0"
       x="0"
       height="22"
       width="22"
       id="rect4266" />
    <circle
       style="opacity:0.003;fill:#000000;fill-opacity:1;stroke-width:1.001;enable-background:new"
       id="path867-5-6-5"
       cx="11"
       cy="11"
       r="9" />
    <path
       class="ColorScheme-PositiveText"
       sodipodi:nodetypes="ccccccc"
       d="M 16.656853,8.995106 15.949745,8.288 10.999999,13.237745 6.05025,8.288 5.3431422,8.995108 10.999999,14.65196 Z"
       style="opacity:1;fill:currentColor"
       id="rect909-7-3-7-3-5-2-0" />
  </g>
  <g
     id="hover-center"
     style="enable-background:new"
     transform="rotate(180,22,11)">
    <rect
       id="rect4266-3"
       width="22"
       height="22"
       x="0"
       y="0"
       style="opacity:0.00100002;fill:#000000;fill-opacity:1;fill-rule:nonzero;stroke:none;stroke-width:2;stroke-linecap:round;stroke-linejoin:round;stroke-miterlimit:4;stroke-dasharray:none;stroke-opacity:1" />
    <path
       id="path867-5-6-5-6"
       style="fill:currentColor"
       d="M 32.990234,2 A 9,9 0 0 0 24,11 a 9,9 0 0 0 9,9 9,9 0 0 0 9,-9 9,9 0 0 0 -9,-9 9,9 0 0 0 -0.0098,0 z M 28.050781,8.2871094 33,13.238281 37.949219,8.2871094 38.65625,8.9941406 33,14.652344 27.34375,8.9941406 Z"
       transform="translate(-22)"
       class="ColorScheme-PositiveText" />
  </g>
  <g
     transform="rotate(180,44,11)"
     style="enable-background:new"
     id="inactive-center">
    <rect
       id="rect4266-9"
       width="22"
       height="22"
       x="0"
       y="0"
       style="opacity:0.00100002;fill:#000000;fill-opacity:1;fill-rule:nonzero;stroke:none;stroke-width:2;stroke-linecap:round;stroke-linejoin:round;stroke-miterlimit:4;stroke-dasharray:none;stroke-opacity:1" />
    <circle
       r="9"
       cy="11"
       cx="11"
       id="path867-5-6-5-1"
       style="opacity:0.003;fill:#000000;fill-opacity:1;stroke-width:1.001;enable-background:new" />
    <path
       id="rect909-7-3-7-3-5-2-0-2"
       style="opacity:0.3;fill:currentColor"
       d="M 16.656853,8.995106 15.949745,8.288 10.999999,13.237745 6.05025,8.288 5.3431422,8.995108 10.999999,14.65196 Z"
       sodipodi:nodetypes="ccccccc"
       class="ColorScheme-PositiveText" />
  </g>
  <g
     transform="rotate(180,55,11)"
     style="enable-background:new"
     id="deactivated-center">
    <rect
       id="rect4266-0"
       width="22"
       height="22"
       x="0"
       y="0"
       style="opacity:0.00100002;fill:#000000;fill-opacity:1;fill-rule:nonzero;stroke:none;stroke-width:2;stroke-linecap:round;stroke-linejoin:round;stroke-miterlimit:4;stroke-dasharray:none;stroke-opacity:1" />
    <circle
       r="9"
       cy="11"
       cx="11"
       id="path867-5-6-5-93"
       style="opacity:0.003;fill:#000000;fill-opacity:1;stroke-width:1.001;enable-background:new" />
    <path
       id="rect909-7-3-7-3-5-2-0-6"
       style="opacity:0.3;fill:currentColor"
       d="M 16.656853,8.995106 15.949745,8.288 10.999999,13.237745 6.05025,8.288 5.3431422,8.995108 10.999999,14.65196 Z"
       sodipodi:nodetypes="ccccccc"
       class="ColorScheme-PositiveText" />
  </g>
  <g
     style="enable-background:new"
     id="pressed-center"
     transform="rotate(-180,33,11)">
    <rect
       style="opacity:0.00100002;fill:#000000;fill-opacity:1;fill-rule:nonzero;stroke:none;stroke-width:2;stroke-linecap:round;stroke-linejoin:round;stroke-miterlimit:4;stroke-dasharray:none;stroke-opacity:1"
       y="0"
       x="0"
       height="22"
       width="22"
       id="rect4266-3-6" />
    <path
       transform="translate(-22)"
       d="M 32.990234,2 A 9,9 0 0 0 24,11 9,9 0 0 0 33,20 9,9 0 0 0 42,11 9,9 0 0 0 33,2 9,9 0 0 0 32.9902,2 Z M 28.050781,8.2871094 33,13.238281 37.949219,8.2871094 38.65625,8.9941406 33,14.652344 27.34375,8.9941406 Z"
       style="opacity:0.3;fill:currentColor"
       id="path867-5-6-5-6-7"
       class="ColorScheme-PositiveText" />
  </g>
</svg>
