<?xml version="1.0" encoding="UTF-8" standalone="no"?>
<svg
   id="svg3642"
   width="205"
   height="210.939"
   version="1"
   sodipodi:docname="background.svg"
   inkscape:version="1.2.2 (b0a8486541, 2022-12-01)"
   xmlns:inkscape="http://www.inkscape.org/namespaces/inkscape"
   xmlns:sodipodi="http://sodipodi.sourceforge.net/DTD/sodipodi-0.dtd"
   xmlns:xlink="http://www.w3.org/1999/xlink"
   xmlns="http://www.w3.org/2000/svg"
   xmlns:svg="http://www.w3.org/2000/svg">
  <sodipodi:namedview
     id="namedview93"
     pagecolor="#ffffff"
     bordercolor="#666666"
     borderopacity="1.0"
     inkscape:pageshadow="2"
     inkscape:pageopacity="0.0"
     inkscape:pagecheckerboard="0"
     showgrid="false"
     inkscape:zoom="8.6352316"
     inkscape:cx="37.173294"
     inkscape:cy="75.90995"
     inkscape:window-width="1920"
     inkscape:window-height="1026"
     inkscape:window-x="0"
     inkscape:window-y="0"
     inkscape:window-maximized="1"
     inkscape:current-layer="svg3642"
     inkscape:showpageshadow="2"
     inkscape:deskcolor="#d1d1d1" />
  <defs
     id="defs3644">
    <style
       id="current-color-scheme"
       type="text/css">
   .ColorScheme-Background { color:#383c4a; }
  </style>
    <linearGradient
       id="linearGradient4465">
      <stop
         id="stop4467"
         offset="0"
         style="stop-color:#000000;stop-opacity:0.50980395" />
      <stop
         id="stop4469"
         offset="1"
         style="stop-color:#000000;stop-opacity:0" />
    </linearGradient>
    <radialGradient
       id="radialGradient3382"
       cx="984"
       cy="905.362"
       r="8.5"
       fx="984"
       fy="905.362"
       gradientTransform="matrix(7.8257357e-6,1.411771,-1.4117668,7.8257123e-6,1466.1525,-1289.2507)"
       gradientUnits="userSpaceOnUse"
       xlink:href="#linearGradient4465" />
    <radialGradient
       id="radialGradient4255"
       cx="982.909"
       cy="906.453"
       r="8.5"
       fx="982.909"
       fy="906.453"
       gradientTransform="matrix(1.4117577,5.5406049e-6,-5.5406032e-6,1.4117573,-1199.6245,-1229.7582)"
       gradientUnits="userSpaceOnUse"
       xlink:href="#linearGradient4465" />
    <linearGradient
       id="linearGradient4259"
       x1="83.6"
       x2="83.6"
       y1="-969.362"
       y2="-957.362"
       gradientTransform="matrix(0.71428571,0,0,1,-317.71429,1250.3622)"
       gradientUnits="userSpaceOnUse"
       xlink:href="#linearGradient4465" />
    <radialGradient
       id="radialGradient4263"
       cx="984"
       cy="905.362"
       r="8.5"
       fx="984"
       fy="905.362"
       gradientTransform="matrix(-1.411767,-9.899721e-6,9.8996845e-6,-1.4117618,1527.1698,1378.1046)"
       gradientUnits="userSpaceOnUse"
       xlink:href="#linearGradient4465" />
    <linearGradient
       id="linearGradient4271"
       x1="83.6"
       x2="83.6"
       y1="-969.362"
       y2="-957.362"
       gradientTransform="matrix(0.71428571,0,0,1,-317.71429,1250.3622)"
       gradientUnits="userSpaceOnUse"
       xlink:href="#linearGradient4465" />
    <radialGradient
       id="radialGradient4275"
       cx="984"
       cy="905.362"
       r="8.5"
       fx="984"
       fy="905.362"
       gradientTransform="matrix(-1.6187099e-5,-1.4117565,1.4117775,-1.618734e-5,-1140.1539,1439.1221)"
       gradientUnits="userSpaceOnUse"
       xlink:href="#linearGradient4465" />
    <linearGradient
       id="linearGradient4283"
       x1="83.6"
       x2="83.6"
       y1="-969.362"
       y2="-957.362"
       gradientTransform="matrix(0.71428571,0,0,1,-317.71429,1250.3622)"
       gradientUnits="userSpaceOnUse"
       xlink:href="#linearGradient4465" />
    <linearGradient
       id="linearGradient4452"
       x1="-260"
       x2="-260"
       y1="281"
       y2="293"
       gradientUnits="userSpaceOnUse"
       xlink:href="#linearGradient4465" />
    <radialGradient
       id="radialGradient4275-3"
       cx="984"
       cy="905.362"
       r="8.5"
       fx="984"
       fy="905.362"
       gradientTransform="matrix(-1.6187099e-5,-1.4117565,1.4117775,-1.618734e-5,-1261.1539,1439.122)"
       gradientUnits="userSpaceOnUse"
       xlink:href="#linearGradient4465" />
    <radialGradient
       id="radialGradient4255-6"
       cx="982.909"
       cy="906.453"
       r="8.5"
       fx="982.909"
       fy="906.453"
       gradientTransform="matrix(1.4117577,5.5406049e-6,-5.5406032e-6,1.4117573,-1320.6245,-1229.7583)"
       gradientUnits="userSpaceOnUse"
       xlink:href="#linearGradient4465" />
    <radialGradient
       id="radialGradient3382-7"
       cx="984"
       cy="905.362"
       r="8.5"
       fx="984"
       fy="905.362"
       gradientTransform="matrix(7.8257357e-6,1.411771,-1.4117668,7.8257123e-6,1345.1525,-1289.2508)"
       gradientUnits="userSpaceOnUse"
       xlink:href="#linearGradient4465" />
    <linearGradient
       id="linearGradient4452-5"
       x1="-260"
       x2="-260"
       y1="281"
       y2="293"
       gradientUnits="userSpaceOnUse"
       xlink:href="#linearGradient4465" />
    <radialGradient
       id="radialGradient4263-5"
       cx="984"
       cy="905.362"
       r="8.5"
       fx="984"
       fy="905.362"
       gradientTransform="matrix(-1.411767,-9.899721e-6,9.8996845e-6,-1.4117618,1406.1698,1378.1045)"
       gradientUnits="userSpaceOnUse"
       xlink:href="#linearGradient4465" />
    <linearGradient
       id="linearGradient4403"
       x1="83.6"
       x2="83.6"
       y1="-969.362"
       y2="-957.362"
       gradientTransform="matrix(0.71428571,0,0,1,-317.71429,1250.3622)"
       gradientUnits="userSpaceOnUse"
       xlink:href="#linearGradient4465" />
    <linearGradient
       id="linearGradient4405"
       x1="83.6"
       x2="83.6"
       y1="-969.362"
       y2="-957.362"
       gradientTransform="matrix(0.71428571,0,0,1,-317.71429,1250.3622)"
       gradientUnits="userSpaceOnUse"
       xlink:href="#linearGradient4465" />
    <linearGradient
       id="linearGradient4407"
       x1="83.6"
       x2="83.6"
       y1="-969.362"
       y2="-957.362"
       gradientTransform="matrix(0.71428571,0,0,1,-317.71429,1250.3622)"
       gradientUnits="userSpaceOnUse"
       xlink:href="#linearGradient4465" />
    <radialGradient
       id="radialGradient4275-3-7"
       cx="984"
       cy="905.362"
       r="8.5"
       fx="984"
       fy="905.362"
       gradientTransform="matrix(-1.6187099e-5,-1.4117565,1.4117775,-1.618734e-5,-1261.1539,1439.122)"
       gradientUnits="userSpaceOnUse"
       xlink:href="#linearGradient4465" />
    <radialGradient
       id="radialGradient4255-6-5"
       cx="982.909"
       cy="906.453"
       r="8.5"
       fx="982.909"
       fy="906.453"
       gradientTransform="matrix(1.4117577,5.5406049e-6,-5.5406032e-6,1.4117573,-1320.6245,-1229.7583)"
       gradientUnits="userSpaceOnUse"
       xlink:href="#linearGradient4465" />
    <radialGradient
       id="radialGradient4263-5-3"
       cx="984"
       cy="905.362"
       r="8.5"
       fx="984"
       fy="905.362"
       gradientTransform="matrix(-1.411767,-9.899721e-6,9.8996845e-6,-1.4117618,1406.1698,1378.1045)"
       gradientUnits="userSpaceOnUse"
       xlink:href="#linearGradient4465" />
    <radialGradient
       id="radialGradient3382-7-5"
       cx="984"
       cy="905.362"
       r="8.5"
       fx="984"
       fy="905.362"
       gradientTransform="matrix(7.8257357e-6,1.411771,-1.4117668,7.8257123e-6,1345.1525,-1289.2508)"
       gradientUnits="userSpaceOnUse"
       xlink:href="#linearGradient4465" />
    <linearGradient
       inkscape:collect="always"
       xlink:href="#linearGradient4465"
       id="linearGradient1329"
       gradientUnits="userSpaceOnUse"
       gradientTransform="matrix(0.71428571,0,0,1,-317.71429,1250.3622)"
       x1="83.6"
       y1="-969.362"
       x2="83.6"
       y2="-957.362" />
    <linearGradient
       inkscape:collect="always"
       xlink:href="#linearGradient4465"
       id="linearGradient1331"
       gradientUnits="userSpaceOnUse"
       x1="-260"
       y1="281"
       x2="-260"
       y2="293" />
    <linearGradient
       inkscape:collect="always"
       xlink:href="#linearGradient4465"
       id="linearGradient1333"
       gradientUnits="userSpaceOnUse"
       gradientTransform="matrix(0.71428571,0,0,1,-317.71429,1250.3622)"
       x1="83.6"
       y1="-969.362"
       x2="83.6"
       y2="-957.362" />
    <linearGradient
       inkscape:collect="always"
       xlink:href="#linearGradient4465"
       id="linearGradient1335"
       gradientUnits="userSpaceOnUse"
       gradientTransform="matrix(0.71428571,0,0,1,-317.71429,1250.3622)"
       x1="83.6"
       y1="-969.362"
       x2="83.6"
       y2="-957.362" />
  </defs>
  <rect
     style="opacity:1;fill:currentColor"
     id="center"
     class="ColorScheme-Background"
     width="50"
     height="50"
     x="17"
     y="49.94" />
  <g
     id="left"
     transform="translate(0,32.938995)">
    <g
       id="shadow-left-3"
       transform="matrix(-1,0,0,1,298,-240)">
      <rect
         id="rect31"
         width="50"
         height="10"
         x="-307"
         y="288"
         transform="matrix(0,-1,1,0,0,0)"
         style="opacity:0.90;fill:url(#linearGradient4403);fill-opacity:0.90;stroke:none" />
      <rect
         id="rect33"
         width="7"
         height="1"
         x="278"
         y="257"
         transform="translate(3,2)"
         style="fill:#3498db;fill-opacity:0" />
    </g>
    <path
       style="opacity:1;fill:currentColor"
       id="path71"
       class="ColorScheme-Background"
       d="m 10.000015,16.999925 0,50 7,10e-6 0,-50 z" />
    <path
       style="fill:#606060;opacity:0.9"
       id="path4438"
       d="m 9,17 0,50 1,0 0,-50 -1,0 z" />
  </g>
  <g
     id="right"
     transform="translate(0,32.938995)">
    <g
       id="shadow-right-2"
       transform="translate(-214,-240)">
      <rect
         id="rect45"
         width="50"
         height="10"
         x="-307"
         y="288"
         transform="matrix(0,-1,1,0,0,0)"
         style="opacity:0.90;fill:url(#linearGradient4452-5);fill-opacity:0.90;stroke:none" />
      <rect
         id="rect47"
         width="7"
         height="1"
         x="278"
         y="257"
         transform="translate(3,2)"
         style="fill:#3498db;fill-opacity:0" />
    </g>
    <path
       style="opacity:1;fill:currentColor"
       id="path79"
       class="ColorScheme-Background"
       d="m 73.999995,16.999935 0,50 -7,1e-5 0,-50 z" />
    <path
       style="fill:#606060;opacity:0.9"
       id="path4440"
       d="m 74,17 0,50 1,0 0,-50 -1,0 z" />
  </g>
  <g
     id="bottom"
     transform="translate(0,32.938995)">
    <g
       id="shadow-bottom-9"
       transform="matrix(0,1,-1,0,324,-214)">
      <rect
         id="rect39"
         width="50"
         height="10"
         x="-307"
         y="288"
         transform="matrix(0,-1,1,0,0,0)"
         style="opacity:0.90;fill:url(#linearGradient4405);fill-opacity:0.90;stroke:none" />
      <rect
         id="rect41"
         width="7"
         height="1"
         x="278"
         y="257"
         transform="translate(3,2)"
         style="fill:#3498db;fill-opacity:0" />
    </g>
    <path
       style="opacity:1;fill:currentColor"
       id="path95"
       class="ColorScheme-Background"
       d="m 16.999975,74.000065 50.00002,0 0,-7 -50.00001,0 z" />
    <path
       style="fill:#606060;opacity:0.9"
       id="path4436"
       d="m 17,74 0,1 50,0 0,-1 -50,0 z" />
  </g>
  <g
     id="top"
     transform="translate(0,32.938995)">
    <g
       id="shadow-top-6"
       transform="matrix(0,-1,-1,0,324,298)">
      <rect
         id="rect51"
         width="50"
         height="10"
         x="-307"
         y="288"
         transform="matrix(0,-1,1,0,0,0)"
         style="opacity:0.90;fill:url(#linearGradient4407);fill-opacity:0.90;stroke:none" />
      <rect
         id="rect53"
         width="7"
         height="1"
         x="278"
         y="257"
         transform="translate(3,2)"
         style="fill:#3498db;fill-opacity:0" />
    </g>
    <path
       style="opacity:1;fill:currentColor"
       id="path111"
       class="ColorScheme-Background"
       d="m 16.999975,9.999935 50.00002,0 0,7 -50.00001,0 z" />
    <path
       style="fill:#606060;opacity:0.9"
       id="path4433"
       d="M 17,9.0000004 17,10 l 50,0 0,-0.9999996 -50,0 z" />
  </g>
  <path
     style="opacity:0.90;fill:url(#radialGradient4275);fill-opacity:0.90;stroke:none"
     id="shadow-topleft"
     d="m 121,49.93909 10,0 0,-2 c 0,-2.77 2.23,-5 5,-5 l 2,0 0,-10 -17,0 z" />
  <g
     id="shadow-left"
     transform="matrix(-1,0,0,1,419,-207.06091)">
    <rect
       style="opacity:0.90;fill:url(#linearGradient4271);fill-opacity:0.90;stroke:none"
       id="rect4267"
       width="50"
       height="10"
       x="-307"
       y="288"
       transform="matrix(0,-1,1,0,0,0)" />
    <rect
       style="fill:#3498db;fill-opacity:0"
       id="rect4269"
       width="7"
       height="1"
       x="278"
       y="257"
       transform="translate(3,2)" />
  </g>
  <path
     style="opacity:0.90;fill:url(#radialGradient3382);fill-opacity:0.90;stroke:none"
     id="shadow-bottomright"
     d="m 205,99.93909 -10,0 0,2 c 0,2.77 -2.23,5 -5,5 l -2,0 0,10 17,0 z" />
  <g
     id="shadow-bottom"
     transform="matrix(0,1,-1,0,445,-181.06091)">
    <rect
       style="opacity:0.90;fill:url(#linearGradient4259);fill-opacity:0.90;stroke:none"
       id="rect3389"
       width="50"
       height="10"
       x="-307"
       y="288"
       transform="matrix(0,-1,1,0,0,0)" />
    <rect
       style="fill:#3498db;fill-opacity:0"
       id="rect4241"
       width="7"
       height="1"
       x="278"
       y="257"
       transform="translate(3,2)" />
  </g>
  <g
     id="shadow-right"
     transform="translate(-93,-207.06091)">
    <rect
       style="opacity:0.90;fill:url(#linearGradient4452);fill-opacity:0.90;stroke:none"
       id="rect4251"
       width="50"
       height="10"
       x="-307"
       y="288"
       transform="matrix(0,-1,1,0,0,0)" />
    <rect
       style="fill:#3498db;fill-opacity:0"
       id="rect4253"
       width="7"
       height="1"
       x="278"
       y="257"
       transform="translate(3,2)" />
  </g>
  <g
     id="shadow-top"
     transform="matrix(0,-1,-1,0,445,330.93909)">
    <rect
       style="opacity:0.90;fill:url(#linearGradient4283);fill-opacity:0.90;stroke:none"
       id="rect4279"
       width="50"
       height="10"
       x="-307"
       y="288"
       transform="matrix(0,-1,1,0,0,0)" />
    <rect
       style="fill:#3498db;fill-opacity:0"
       id="rect4281"
       width="7"
       height="1"
       x="278"
       y="257"
       transform="translate(3,2)" />
  </g>
  <path
     style="opacity:0.90;fill:url(#radialGradient4255);fill-opacity:0.90;stroke:none"
     id="shadow-topright"
     d="m 188,32.93909 0,10 2,0 c 2.77,0 5,2.23 5,5 l 0,2 10,0 0,-17 z" />
  <g
     style="fill:#000000;fill-opacity:0"
     id="shadow-center"
     transform="matrix(0.31570315,0,0,0.31570315,1.894219,193.8907)">
    <path
       style="fill:#000000;fill-opacity:0;stroke:none"
       id="path3642"
       d="m -6.0000004,-7.998957 0,62 62.0000004,0 0,-62 -62.0000004,0 z" />
  </g>
  <path
     style="opacity:0.90;fill:url(#radialGradient4263);fill-opacity:0.90;stroke:none"
     id="shadow-bottomleft"
     d="m 138,116.93909 0,-10 -2,0 c -2.77,0 -5,-2.23 -5,-5 l 0,-2 -10,0 0,17 z" />
  <rect
     style="opacity:0.90;fill:#ff6600;fill-opacity:0.90;stroke:none"
     id="hint-tile-center"
     width="5"
     height="5"
     x="0"
     y="-.06" />
  <rect
     style="fill:#ff00ff;fill-opacity:0.9;stroke:none"
     id="hint-top-margin"
     width="4"
     height="17"
     x="39"
     y="42.939999" />
  <rect
     style="fill:#ff00ff;fill-opacity:0.9;stroke:none"
     id="hint-bottom-margin"
     width="4"
     height="17"
     x="39"
     y="89.940002" />
  <rect
     style="fill:#ff00ff;fill-opacity:0.9;stroke:none"
     id="hint-right-margin"
     width="4"
     height="17"
     x="71.940002"
     y="-74"
     transform="rotate(90)" />
  <rect
     style="fill:#ff00ff;fill-opacity:0.9;stroke:none"
     id="hint-left-margin"
     width="4"
     height="17"
     x="71.940002"
     y="-27"
     transform="rotate(90)" />
  <rect
     style="fill:#ff00ff;fill-opacity:0.90;stroke:none"
     id="shadow-hint-top-margin"
     width="4"
     height="17"
     x="161"
     y="32.94" />
  <rect
     style="fill:#ff00ff;fill-opacity:0.90;stroke:none"
     id="shadow-hint-bottom-margin"
     width="4"
     height="17"
     x="161"
     y="99.94" />
  <rect
     style="fill:#ff00ff;fill-opacity:0.90;stroke:none"
     id="shadow-hint-right-margin"
     width="4"
     height="17"
     x="71.94"
     y="-205"
     transform="matrix(0,1,-1,0,0,0)" />
  <rect
     style="fill:#ff00ff;fill-opacity:0.90;stroke:none"
     id="shadow-hint-left-margin"
     width="4"
     height="17"
     x="71.94"
     y="-138"
     transform="matrix(0,1,-1,0,0,0)" />
  <g
     id="topleft">
    <path
       id="shadow-topleft-7"
       d="m 0,49.938995 10,0 0,-2 c 0,-2.77 2.23,-5 5,-5 l 2,0 0,-10 -17,0 z"
       style="opacity:0.90;fill:url(#radialGradient4275-3);fill-opacity:0.90;stroke:none" />
    <path
       style="opacity:1;fill:currentColor"
       id="path63"
       class="ColorScheme-Background"
       d="m 17.000005,42.93893 0,7 -7,0 0,-2 c 0,-2.77 2.23,-5 5,-5 z" />
    <path
       id="path4256"
       d="M 15 41.939453 C 11.693297 41.939453 9 44.63275 9 47.939453 L 9 49.939453 L 10 49.939453 L 10 47.939453 C 10 45.169453 12.23 42.939453 15 42.939453 L 17 42.939453 L 17 41.939453 L 15 41.939453 z"
       style="fill:#606060;opacity:0.9" />
  </g>
  <g
     id="topright">
    <path
       id="shadow-topright-2"
       d="m 67,32.938995 0,10 2,0 c 2.77,0 5,2.23 5,5 l 0,2 10,0 0,-17 z"
       style="opacity:0.90;fill:url(#radialGradient4255-6);fill-opacity:0.90;stroke:none" />
    <path
       style="opacity:1;fill:currentColor"
       id="path119"
       class="ColorScheme-Background"
       d="m 66.999995,42.93893 0,7 7,0 0,-2 c 0,-2.77 -2.23,-5 -5,-5 z" />
    <path
       style="fill:#606060;opacity:0.9"
       id="path4272"
       d="m 69,41.938995 c 3.306703,0 6,2.693297 6,6 l 0,2 -1,0 0,-2 c 0,-2.77 -2.23,-5 -5,-5 l -2,0 0,-1 2,0 z" />
  </g>
  <g
     id="bottomleft">
    <path
       id="shadow-bottomleft-6"
       d="m 17,116.939 0,-10 -2,0 c -2.77,0 -5,-2.23001 -5,-5 l 0,-2.000005 -10,0 0,17.000005 z"
       style="opacity:0.90;fill:url(#radialGradient4263-5);fill-opacity:0.90;stroke:none" />
    <path
       style="opacity:1;fill:currentColor"
       id="path87"
       class="ColorScheme-Background"
       d="m 17.000005,106.93902 0,-7 -7,0 0,2 c 0,2.77 2.23,5 5,5 z" />
    <path
       style="fill:#606060;opacity:0.9"
       id="path4274"
       d="m 15,107.939 c -3.306703,0 -6,-2.6933 -6,-6 l 0,-2.000005 1,0 0,2.000005 c 0,2.77 2.23,5 5,5 l 2,0 0,1 -2,0 z" />
  </g>
  <g
     id="bottomright">
    <path
       id="shadow-bottomright-1"
       d="m 84,99.938995 -10,0 0,2.000005 c 0,2.76999 -2.23,5 -5,5 l -2,0 0,10 17,0 z"
       style="opacity:0.90;fill:url(#radialGradient3382-7);fill-opacity:0.90;stroke:none" />
    <g
       id="22">
      <path
         id="path103"
         class="ColorScheme-Background"
         d="m 66.999995,106.93902 0,-7 7,0 0,2 c 0,2.77 -2.23,5 -5,5 z"
         style="opacity:1;fill:currentColor" />
      <path
         style="fill:#606060;opacity:0.9"
         id="path4276"
         d="m 69,107.93945 c 3.306703,0 6,-2.69329 6,-6 l 0,-2.000005 -1,0 0,2.000005 c 0,2.77 -2.23,5 -5,5 l -2,0 0,1 2,0 z" />
    </g>
  </g>
  <rect
     style="opacity:0.7;fill:currentColor"
     id="blurred-center"
     class="ColorScheme-Background"
     width="50"
     height="50"
     x="81.124588"
     y="136.48019" />
  <g
     id="blurred-left"
     transform="translate(64.124588,119.4792)">
    <g
       id="shadow-left-3-9"
       transform="matrix(-1,0,0,1,298,-240)">
      <rect
         id="rect31-1"
         width="50"
         height="10"
         x="-307"
         y="288"
         transform="rotate(-90)"
         style="opacity:0.9;fill:url(#linearGradient1329);fill-opacity:0.9;stroke:none" />
      <rect
         id="rect33-2"
         width="7"
         height="1"
         x="278"
         y="257"
         transform="translate(3,2)"
         style="fill:#3498db;fill-opacity:0" />
    </g>
    <path
       style="opacity:0.7;fill:currentColor"
       id="path71-7"
       class="ColorScheme-Background"
       d="m 10.000015,16.999925 v 50 l 7,10e-6 v -50 z" />
    <path
       style="opacity:0.9;fill:#606060"
       id="path4438-0"
       d="m 9,17 v 50 h 1 V 17 Z" />
  </g>
  <g
     id="blurred-right"
     transform="translate(64.124588,119.4792)">
    <g
       id="shadow-right-2-3"
       transform="translate(-214,-240)">
      <rect
         id="rect45-6"
         width="50"
         height="10"
         x="-307"
         y="288"
         transform="rotate(-90)"
         style="opacity:0.9;fill:url(#linearGradient1331);fill-opacity:0.9;stroke:none" />
      <rect
         id="rect47-0"
         width="7"
         height="1"
         x="278"
         y="257"
         transform="translate(3,2)"
         style="fill:#3498db;fill-opacity:0" />
    </g>
    <path
       style="opacity:0.7;fill:currentColor"
       id="path79-6"
       class="ColorScheme-Background"
       d="m 73.999995,16.999935 v 50 l -7,1e-5 v -50 z" />
    <path
       style="opacity:0.9;fill:#606060"
       id="path4440-2"
       d="m 74,17 v 50 h 1 V 17 Z" />
  </g>
  <g
     id="blurred-bottom"
     transform="translate(64.124588,119.4792)">
    <g
       id="shadow-bottom-9-1"
       transform="rotate(90,269,55)">
      <rect
         id="rect39-8"
         width="50"
         height="10"
         x="-307"
         y="288"
         transform="rotate(-90)"
         style="opacity:0.9;fill:url(#linearGradient1333);fill-opacity:0.9;stroke:none" />
      <rect
         id="rect41-7"
         width="7"
         height="1"
         x="278"
         y="257"
         transform="translate(3,2)"
         style="fill:#3498db;fill-opacity:0" />
    </g>
    <path
       style="opacity:0.7;fill:currentColor"
       id="path95-9"
       class="ColorScheme-Background"
       d="m 16.999975,74.000065 h 50.00002 v -7 h -50.00001 z" />
    <path
       style="opacity:0.9;fill:#606060"
       id="path4436-2"
       d="m 17,74 v 1 h 50 v -1 z" />
  </g>
  <g
     id="blurred-top"
     transform="translate(64.124588,119.4792)">
    <g
       id="shadow-top-6-2"
       transform="matrix(0,-1,-1,0,324,298)">
      <rect
         id="rect51-3"
         width="50"
         height="10"
         x="-307"
         y="288"
         transform="rotate(-90)"
         style="opacity:0.9;fill:url(#linearGradient1335);fill-opacity:0.9;stroke:none" />
      <rect
         id="rect53-7"
         width="7"
         height="1"
         x="278"
         y="257"
         transform="translate(3,2)"
         style="fill:#3498db;fill-opacity:0" />
    </g>
    <path
       style="opacity:0.7;fill:currentColor"
       id="path111-5"
       class="ColorScheme-Background"
       d="m 16.999975,9.999935 h 50.00002 v 7 h -50.00001 z" />
    <path
       style="opacity:0.9;fill:#606060"
       id="path4433-9"
       d="M 17,9.0000004 V 10 H 67 V 9.0000004 Z" />
  </g>
  <rect
     style="fill:#ff00ff;fill-opacity:0.9;stroke:none"
     id="blurred-hint-top-margin"
     width="4"
     height="17"
     x="103.12459"
     y="127.48019" />
  <rect
     style="fill:#ff00ff;fill-opacity:0.9;stroke:none"
     id="blurred-hint-bottom-margin"
     width="4"
     height="17"
     x="103.12459"
     y="178.48021" />
  <rect
     style="fill:#ff00ff;fill-opacity:0.9;stroke:none"
     id="blurred-hint-right-margin"
     width="4"
     height="17"
     x="158.48021"
     y="-140.12459"
     transform="rotate(90)" />
  <rect
     style="fill:#ff00ff;fill-opacity:0.9;stroke:none"
     id="blurred-hint-left-margin"
     width="4"
     height="17"
     x="158.48021"
     y="-89.124588"
     transform="rotate(90)" />
  <g
     id="blurred-topleft"
     transform="translate(64.124588,86.540199)">
    <path
       id="shadow-topleft-7-3"
       d="m 0,49.938995 h 10 v -2 c 0,-2.77 2.23,-5 5,-5 h 2 v -10 H 0 Z"
       style="opacity:0.9;fill:url(#radialGradient4275-3-7);fill-opacity:0.9;stroke:none" />
    <path
       style="opacity:0.7;fill:currentColor"
       id="path63-6"
       class="ColorScheme-Background"
       d="m 17.000005,42.93893 v 7 h -7 v -2 c 0,-2.77 2.23,-5 5,-5 z" />
    <path
       id="path4256-1"
       d="m 15,41.939453 c -3.306703,0 -6,2.693297 -6,6 v 2 h 1 v -2 c 0,-2.77 2.23,-5 5,-5 h 2 v -1 z"
       style="opacity:0.9;fill:#606060" />
  </g>
  <g
     id="blurred-topright"
     transform="translate(64.124588,86.540199)">
    <path
       id="shadow-topright-2-9"
       d="m 67,32.938995 v 10 h 2 c 2.77,0 5,2.23 5,5 v 2 h 10 v -17 z"
       style="opacity:0.9;fill:url(#radialGradient4255-6-5);fill-opacity:0.9;stroke:none" />
    <path
       style="opacity:0.7;fill:currentColor"
       id="path119-3"
       class="ColorScheme-Background"
       d="m 66.999995,42.93893 v 7 h 7 v -2 c 0,-2.77 -2.23,-5 -5,-5 z" />
    <path
       style="opacity:0.9;fill:#606060"
       id="path4272-1"
       d="m 69,41.938995 c 3.306703,0 6,2.693297 6,6 v 2 h -1 v -2 c 0,-2.77 -2.23,-5 -5,-5 h -2 v -1 z" />
  </g>
  <g
     id="blurred-bottomleft"
     transform="translate(64.124588,86.540199)">
    <path
       id="shadow-bottomleft-6-4"
       d="m 17,116.939 v -10 h -2 c -2.77,0 -5,-2.23001 -5,-5 V 99.938995 H 0 V 116.939 Z"
       style="opacity:0.9;fill:url(#radialGradient4263-5-3);fill-opacity:0.9;stroke:none" />
    <path
       style="opacity:0.7;fill:currentColor"
       id="path87-7"
       class="ColorScheme-Background"
       d="m 17.000005,106.93902 v -7 h -7 v 2 c 0,2.77 2.23,5 5,5 z" />
    <path
       style="opacity:0.9;fill:#606060"
       id="path4274-8"
       d="m 15,107.939 c -3.306703,0 -6,-2.6933 -6,-6 v -2.000005 h 1 V 101.939 c 0,2.77 2.23,5 5,5 h 2 v 1 z" />
  </g>
  <g
     id="blurred-bottomright"
     transform="translate(64.124588,86.540199)">
    <path
       id="shadow-bottomright-1-5"
       d="M 84,99.938995 H 74 V 101.939 c 0,2.76999 -2.23,5 -5,5 h -2 v 10 h 17 z"
       style="opacity:0.9;fill:url(#radialGradient3382-7-5);fill-opacity:0.9;stroke:none" />
    <g
       id="22-0">
      <path
         id="path103-3"
         class="ColorScheme-Background"
         d="m 66.999995,106.93902 v -7 h 7 v 2 c 0,2.77 -2.23,5 -5,5 z"
         style="opacity:0.7;fill:currentColor" />
      <path
         style="opacity:0.9;fill:#606060"
         id="path4276-6"
         d="m 69,107.93945 c 3.306703,0 6,-2.69329 6,-6 v -2.000005 h -1 v 2.000005 c 0,2.77 -2.23,5 -5,5 h -2 v 1 z" />
    </g>
  </g>
</svg>
