<?xml version="1.0" encoding="UTF-8" standalone="no"?>
<svg
   id="svg3642"
   width="84"
   height="84"
   version="1"
   sodipodi:docname="decoration.svg"
   inkscape:version="1.2.2 (b0a8486541, 2022-12-01)"
   xmlns:inkscape="http://www.inkscape.org/namespaces/inkscape"
   xmlns:sodipodi="http://sodipodi.sourceforge.net/DTD/sodipodi-0.dtd"
   xmlns:xlink="http://www.w3.org/1999/xlink"
   xmlns="http://www.w3.org/2000/svg"
   xmlns:svg="http://www.w3.org/2000/svg"
   xmlns:rdf="http://www.w3.org/1999/02/22-rdf-syntax-ns#"
   xmlns:cc="http://creativecommons.org/ns#"
   xmlns:dc="http://purl.org/dc/elements/1.1/">
  <sodipodi:namedview
     id="namedview81"
     pagecolor="#ffffff"
     bordercolor="#454545"
     borderopacity="1.0"
     inkscape:pageshadow="2"
     inkscape:pageopacity="0.0"
     inkscape:pagecheckerboard="0"
     showgrid="false"
     inkscape:zoom="5.6568543"
     inkscape:cx="0.17677669"
     inkscape:cy="73.80427"
     inkscape:window-width="1920"
     inkscape:window-height="1019"
     inkscape:window-x="0"
     inkscape:window-y="0"
     inkscape:window-maximized="1"
     inkscape:current-layer="decoration-bottomleft"
     inkscape:showpageshadow="2"
     inkscape:deskcolor="#d1d1d1" />
    <inkscape:grid
       type="xygrid"
       id="grid866" />
  <defs
     id="defs3644">
         <style
       id="current-color-scheme"
       type="text/css" />
    <linearGradient
       id="linearGradient1562">
      <stop
         id="stop1558"
         offset="0"
         style="stop-color:#000000;stop-opacity:1" />
      <stop
         id="stop1560"
         offset="1"
         style="stop-color:#000000;stop-opacity:0" />
    </linearGradient>
    <linearGradient
       id="linearGradient4271"
       x1="83.599998"
       x2="83.600006"
       y1="-969.362"
       y2="-952.36218"
       gradientTransform="matrix(0.71428571,0,0,1,-317.71429,1250.3622)"
       gradientUnits="userSpaceOnUse"
       xlink:href="#linearGradient1562" />
    <linearGradient
       id="linearGradient4259"
       x1="83.599998"
       x2="83.600006"
       y1="-969.362"
       y2="-952.36218"
       gradientTransform="matrix(0.71428571,0,0,1,-317.71429,1250.3622)"
       gradientUnits="userSpaceOnUse"
       xlink:href="#linearGradient1562" />
    <linearGradient
       id="linearGradient4452"
       x1="-260"
       x2="-260"
       y1="281"
       y2="298"
       gradientUnits="userSpaceOnUse"
       xlink:href="#linearGradient1562" />
    <linearGradient
       id="linearGradient4283"
       x1="83.599998"
       x2="83.600006"
       y1="-969.362"
       y2="-952.36218"
       gradientTransform="matrix(0.71428571,0,0,1,-317.71429,1250.3622)"
       gradientUnits="userSpaceOnUse"
       xlink:href="#linearGradient1562" />
    <radialGradient
       id="radialGradient4255"
       cx="982.909"
       cy="906.453"
       r="8.5"
       fx="982.909"
       fy="906.453"
       gradientTransform="matrix(2.0000159,1.8388577e-5,-1.8388254e-5,1.9999808,-1898.8171,-1795.9068)"
       gradientUnits="userSpaceOnUse"
       xlink:href="#linearGradient1562" />
    <radialGradient
       inkscape:collect="always"
       xlink:href="#linearGradient1562"
       id="radialGradient876"
       gradientUnits="userSpaceOnUse"
       gradientTransform="matrix(2.0000192,2.6238099e-5,-2.6237598e-5,1.999981,-1898.8132,-1795.9148)"
       cx="982.909"
       cy="906.453"
       fx="982.909"
       fy="906.453"
       r="8.5" />
    <radialGradient
       inkscape:collect="always"
       xlink:href="#linearGradient1562"
       id="radialGradient886"
       gradientUnits="userSpaceOnUse"
       gradientTransform="matrix(2.0000192,2.6238099e-5,-2.6237598e-5,1.999981,-1898.8132,-1795.9148)"
       cx="982.909"
       cy="906.453"
       fx="982.909"
       fy="906.453"
       r="8.5" />
    <radialGradient
       inkscape:collect="always"
       xlink:href="#linearGradient1562"
       id="radialGradient896"
       gradientUnits="userSpaceOnUse"
       gradientTransform="matrix(2.0000192,2.6238099e-5,-2.6237598e-5,1.999981,-1898.8132,-1795.9148)"
       cx="982.909"
       cy="906.453"
       fx="982.909"
       fy="906.453"
       r="8.5" />
  </defs>
  <rect
     style="opacity:1;fill:#ff6600;fill-opacity:1;stroke:none"
     id="hint-tile-center"
     width="5"
     height="5"
     x="0"
     y="904.36218" />
  <rect
     id="decoration-center"
     width="50"
     height="50"
     x="17"
     y="17"
     class="ColorScheme-Background"
     style="fill:currentColor;"
      />
  <g
     id="decoration-left">
    <g
       id="shadow-left-3"
       transform="matrix(-1,0,0,1,298,-240)">
      <rect
         id="rect31"
         width="50"
         height="11"
         x="-307"
         y="287"
         transform="rotate(-90)"
         style="opacity:0.25;fill:url(#linearGradient4271);fill-opacity:1;stroke:none" />
      <rect
         id="rect33"
         width="7"
         height="1"
         x="278"
         y="257"
         transform="translate(3,2)"
         style="fill:#3498db;fill-opacity:0" />
    </g>
    <path
       id="path71"
       d="M 11 17 L 11 67 L 17 67 L 17 17 L 11 17 z"
       style="fill:currentColor;"
       class="ColorScheme-Background" />
    <path
       id="path4438"
       d="M 10 17 L 10 67 L 11 67 L 11 17 L 10 17 z"
       style="opacity:1;fill:#454545" />
  </g>
  <g
     id="decoration-right">
    <g
       id="shadow-right"
       transform="translate(-214,-240)">
      <rect
         id="rect45"
         width="50"
         height="11"
         x="-307"
         y="287"
         transform="rotate(-90)"
         style="opacity:0.25;fill:url(#linearGradient4452);fill-opacity:1;stroke:none" />
      <rect
         id="rect47"
         width="7"
         height="1"
         x="278"
         y="257"
         transform="translate(3,2)"
         style="fill:#3498db;fill-opacity:0" />
    </g>
    <path
       id="path79"
       d="M 67 17 L 67 67 L 73 67 L 73 17 L 67 17 z"
       style="fill:currentColor;"
       class="ColorScheme-Background" />
    <path
       id="path4440"
       d="M 73 17 L 73 67 L 74 67 L 74 17 L 73 17 z"
       style="opacity:1;fill:#454545" />
  </g>
  <g
     id="decoration-bottom">
    <g
       id="shadow-bottom"
       transform="matrix(0,1,-1,0,324,-214)">
      <rect
         id="rect39"
         width="50"
         height="11"
         x="-307"
         y="287"
         transform="rotate(-90)"
         style="opacity:0.25;fill:url(#linearGradient4259);fill-opacity:1;stroke:none" />
      <rect
         id="rect41"
         width="7"
         height="1"
         x="278"
         y="257"
         transform="translate(3,2)"
         style="fill:#3498db;fill-opacity:0" />
    </g>
    <path
       id="path95"
       d="m 17,67 v 6 h 50 v -6 z"
       style="fill:currentColor;"
       class="ColorScheme-Background" />
    <path
       id="path4436"
       d="M 17 73 L 17 74 L 67 74 L 67 73 L 17 73 z"
       style="opacity:1;fill:#454545" />
  </g>
  <g
     id="decoration-top">
    <g
       id="shadow-top-6"
       transform="matrix(0,-1,-1,0,324,298)">
      <rect
         id="rect51"
         width="50"
         height="11"
         x="-307"
         y="287"
         transform="rotate(-90)"
         style="opacity:0.25;fill:url(#linearGradient4283);fill-opacity:1;stroke:none" />
      <rect
         id="rect53"
         width="7"
         height="1"
         x="278"
         y="257"
         transform="translate(3,2)"
         style="fill:#3498db;fill-opacity:0" />
    </g>
    <path
       id="path111"
       d="M 17 11 L 17 17 L 67 17 L 67 11 L 17 11 z"
       style="fill:currentColor;"
       class="ColorScheme-Background" />
    <path
       id="path4433"
       d="M 17 10 L 17 11 L 67 11 L 67 10 L 17 10 z"
       style="opacity:1;fill:#454545" />
  </g>
  <g
     id="decoration-topright">
    <path
       id="shadow-topright"
       d="m 67,0 v 11 h 6 v 6 H 84 V 0 Z"
       style="opacity:0.25;fill:url(#radialGradient4255);fill-opacity:1;stroke:none"
       inkscape:connector-curvature="0"
       sodipodi:nodetypes="ccccccc" />
    <path
       id="path119"
       d="m 67,11 v 6 h 6 v -6 z"
       style="fill:currentColor;"
       class="ColorScheme-Background" />
    <path
       id="path4445"
       d="m 67,10 v 1 h 2 4 v 6 h 1 v -7 h -5 z"
       style="opacity:1;fill:#454545" />
  </g>
  <g
     id="decoration-topleft"
     transform="matrix(-1,0,0,1,84,0)">
    <path
       sodipodi:nodetypes="ccccccc"
       inkscape:connector-curvature="0"
       style="opacity:0.25;fill:url(#radialGradient876);fill-opacity:1;stroke:none"
       d="m 67,0 v 11 h 6 v 6 H 84 V 0 Z"
       id="path868" />
    <path
       d="m 67,11 v 6 h 6 v -6 z"
       id="path870"
       style="fill:currentColor;"
       class="ColorScheme-Background" />
    <path
       d="m 67,10 v 1 h 2 4 v 6 h 1 v -7 h -5 z"
       id="path872"
       style="opacity:1;fill:#454545" />
  </g>
  <g
     transform="rotate(-180,42,42)"
     id="decoration-bottomleft">
    <path
       id="path878"
       d="m 67,0 v 11 h 6 v 6 H 84 V 0 Z"
       style="opacity:0.25;fill:url(#radialGradient886);fill-opacity:1;stroke:none"
       inkscape:connector-curvature="0"
       sodipodi:nodetypes="ccccccc" />
    <path
       id="path880"
       d="m 67,11 v 6 h 6 v -6 h -4 z"
       style="fill:currentColor;"
       class="ColorScheme-Background" />
    <path
       id="path882"
       d="m 67,10 v 1 h 2 4 v 6 h 1 v -7 h -5 z"
       style="opacity:1;fill:#454545" />
  </g>
  <g
     id="decoration-bottomright"
     transform="matrix(1,0,0,-1,0,84)">
    <path
       sodipodi:nodetypes="ccccccc"
       inkscape:connector-curvature="0"
       style="opacity:0.25;fill:url(#radialGradient896);fill-opacity:1;stroke:none"
       d="m 67,0 v 11 h 6 v 6 H 84 V 0 Z"
       id="path888" />
    <path
       d="m 67,11 v 6 h 6 v -6 h -4 z"
       id="path890"
       style="fill:currentColor;"
       class="ColorScheme-Background" />
    <path
       d="m 67,10 v 1 h 2 4 v 6 h 1 v -7 h -5 z"
       id="path892"
       style="opacity:1;fill:#454545" />
  </g>
</svg>
